<?xml version="1.0" encoding="UTF-8" standalone="no"?>
<!-- Created with Inkscape (http://www.inkscape.org/) -->

<svg
   xmlns:dc="http://purl.org/dc/elements/1.1/"
   xmlns:cc="http://creativecommons.org/ns#"
   xmlns:rdf="http://www.w3.org/1999/02/22-rdf-syntax-ns#"
   xmlns:svg="http://www.w3.org/2000/svg"
   xmlns="http://www.w3.org/2000/svg"
   xmlns:sodipodi="http://sodipodi.sourceforge.net/DTD/sodipodi-0.dtd"
   xmlns:inkscape="http://www.inkscape.org/namespaces/inkscape"
   width="125.00788"
   height="162.72417"
   id="svg2"
   version="1.1"
   inkscape:version="0.47 r22583"
   sodipodi:docname="FullyDiffOpamp_Model.svg">
  <defs
     id="defs4">
    <marker
       inkscape:stockid="Arrow2Mend"
       orient="auto"
       refY="0"
       refX="0"
       id="Arrow2Mend"
       style="overflow:visible">
      <path
         id="path3788"
         style="font-size:12px;fill-rule:evenodd;stroke-width:0.625;stroke-linejoin:round"
         d="M 8.7185878,4.0337352 -2.2072895,0.01601326 8.7185884,-4.0017078 c -1.7454984,2.3720609 -1.7354408,5.6174519 -6e-7,8.035443 z"
         transform="scale(-0.6,-0.6)" />
    </marker>
    <inkscape:perspective
       sodipodi:type="inkscape:persp3d"
       inkscape:vp_x="0 : 526.18109 : 1"
       inkscape:vp_y="0 : 1000 : 0"
       inkscape:vp_z="744.09448 : 526.18109 : 1"
       inkscape:persp3d-origin="372.04724 : 350.78739 : 1"
       id="perspective10" />
    <inkscape:perspective
       id="perspective2938"
       inkscape:persp3d-origin="62.521656 : 42.259842 : 1"
       inkscape:vp_z="125.04331 : 63.389763 : 1"
       inkscape:vp_y="0 : 1000 : 0"
       inkscape:vp_x="0 : 63.389763 : 1"
       sodipodi:type="inkscape:persp3d" />
    <inkscape:perspective
       id="perspective3414"
       inkscape:persp3d-origin="0.5 : 0.33333333 : 1"
       inkscape:vp_z="1 : 0.5 : 1"
       inkscape:vp_y="0 : 1000 : 0"
       inkscape:vp_x="0 : 0.5 : 1"
       sodipodi:type="inkscape:persp3d" />
    <inkscape:perspective
       id="perspective3077"
       inkscape:persp3d-origin="0.5 : 0.33333333 : 1"
       inkscape:vp_z="1 : 0.5 : 1"
       inkscape:vp_y="0 : 1000 : 0"
       inkscape:vp_x="0 : 0.5 : 1"
       sodipodi:type="inkscape:persp3d" />
    <inkscape:perspective
       id="perspective3077-9"
       inkscape:persp3d-origin="0.5 : 0.33333333 : 1"
       inkscape:vp_z="1 : 0.5 : 1"
       inkscape:vp_y="0 : 1000 : 0"
       inkscape:vp_x="0 : 0.5 : 1"
       sodipodi:type="inkscape:persp3d" />
    <inkscape:perspective
       id="perspective3123"
       inkscape:persp3d-origin="0.5 : 0.33333333 : 1"
       inkscape:vp_z="1 : 0.5 : 1"
       inkscape:vp_y="0 : 1000 : 0"
       inkscape:vp_x="0 : 0.5 : 1"
       sodipodi:type="inkscape:persp3d" />
    <inkscape:perspective
       id="perspective2972"
       inkscape:persp3d-origin="0.5 : 0.33333333 : 1"
       inkscape:vp_z="1 : 0.5 : 1"
       inkscape:vp_y="0 : 1000 : 0"
       inkscape:vp_x="0 : 0.5 : 1"
       sodipodi:type="inkscape:persp3d" />
    <inkscape:perspective
       id="perspective4779"
       inkscape:persp3d-origin="0.5 : 0.33333333 : 1"
       inkscape:vp_z="1 : 0.5 : 1"
       inkscape:vp_y="0 : 1000 : 0"
       inkscape:vp_x="0 : 0.5 : 1"
       sodipodi:type="inkscape:persp3d" />
    <marker
       inkscape:stockid="Arrow2Mend"
       orient="auto"
       refY="0"
       refX="0"
       id="Arrow2Mend-4"
       style="overflow:visible">
      <path
         id="path3788-0"
         style="font-size:12px;fill-rule:evenodd;stroke-width:0.625;stroke-linejoin:round"
         d="M 8.7185878,4.0337352 -2.2072895,0.01601326 8.7185884,-4.0017078 c -1.7454984,2.3720609 -1.7354408,5.6174519 -6e-7,8.035443 z"
         transform="scale(-0.6,-0.6)" />
    </marker>
    <inkscape:perspective
       id="perspective4807"
       inkscape:persp3d-origin="0.5 : 0.33333333 : 1"
       inkscape:vp_z="1 : 0.5 : 1"
       inkscape:vp_y="0 : 1000 : 0"
       inkscape:vp_x="0 : 0.5 : 1"
       sodipodi:type="inkscape:persp3d" />
    <marker
       inkscape:stockid="Arrow2Mend"
       orient="auto"
       refY="0"
       refX="0"
       id="Arrow2Mend-48"
       style="overflow:visible">
      <path
         id="path3788-8"
         style="font-size:12px;fill-rule:evenodd;stroke-width:0.625;stroke-linejoin:round"
         d="M 8.7185878,4.0337352 -2.2072895,0.01601326 8.7185884,-4.0017078 c -1.7454984,2.3720609 -1.7354408,5.6174519 -6e-7,8.035443 z"
         transform="scale(-0.6,-0.6)" />
    </marker>
    <inkscape:perspective
       id="perspective4807-2"
       inkscape:persp3d-origin="0.5 : 0.33333333 : 1"
       inkscape:vp_z="1 : 0.5 : 1"
       inkscape:vp_y="0 : 1000 : 0"
       inkscape:vp_x="0 : 0.5 : 1"
       sodipodi:type="inkscape:persp3d" />
    <marker
       inkscape:stockid="Arrow2Mend"
       orient="auto"
       refY="0"
       refX="0"
       id="Arrow2Mend-45"
       style="overflow:visible">
      <path
         id="path3788-5"
         style="font-size:12px;fill-rule:evenodd;stroke-width:0.625;stroke-linejoin:round"
         d="M 8.7185878,4.0337352 -2.2072895,0.01601326 8.7185884,-4.0017078 c -1.7454984,2.3720609 -1.7354408,5.6174519 -6e-7,8.035443 z"
         transform="scale(-0.6,-0.6)" />
    </marker>
  </defs>
  <sodipodi:namedview
     id="base"
     pagecolor="#ffffff"
     bordercolor="#666666"
     borderopacity="1.0"
     inkscape:pageopacity="0.0"
     inkscape:pageshadow="2"
     inkscape:zoom="2.8"
     inkscape:cx="28.015512"
     inkscape:cy="39.080226"
     inkscape:document-units="px"
     inkscape:current-layer="1"
     showgrid="true"
     inkscape:window-width="1680"
     inkscape:window-height="988"
     inkscape:window-x="-8"
     inkscape:window-y="-8"
     inkscape:window-maximized="1"
     inkscape:object-nodes="true"
     inkscape:snap-nodes="false"
     inkscape:snap-bbox="true">
    <inkscape:grid
       type="xygrid"
       id="grid2816"
       empspacing="5"
       visible="true"
       enabled="true"
       snapvisiblegridlinesonly="true" />
  </sodipodi:namedview>
  <metadata
     id="metadata7">
    <rdf:RDF>
      <cc:Work
         rdf:about="">
        <dc:format>image/svg+xml</dc:format>
        <dc:type
           rdf:resource="http://purl.org/dc/dcmitype/StillImage" />
        <dc:title />
      </cc:Work>
    </rdf:RDF>
  </metadata>
  <g
     inkscape:label="Layer 1"
     inkscape:groupmode="layer"
     id="layer1"
     transform="translate(-307.9741,-435.17377)">
    <g
       id="1"
       transform="translate(307.9741,435.17377)">
      <path
         d="m 27.070867,48.330708 8.858268,0 0,0"
         style="fill:none;stroke:#000000;stroke-width:0.99212605px;stroke-linecap:butt;stroke-linejoin:miter;stroke-miterlimit:4;stroke-opacity:1;stroke-dasharray:none"
         id="2" />
      <path
         d="m 27.070867,66.047243 8.858268,0"
         style="fill:none;stroke:#000000;stroke-width:0.99212605px;stroke-linecap:butt;stroke-linejoin:miter;stroke-miterlimit:4;stroke-opacity:1;stroke-dasharray:none"
         id="3" />
      <path
         d="m 27.070867,57.188976 8.858268,0"
         style="fill:none;stroke:#000000;stroke-width:0.99212605px;stroke-linecap:butt;stroke-linejoin:miter;stroke-miterlimit:4;stroke-opacity:1;stroke-dasharray:none"
         id="4" />
      <path
         d="m 35.929135,39.47244 0,35.433071 26.574805,0 0,-35.433071 z"
         style="fill:none;stroke:#000000;stroke-width:0.99212605px;stroke-linecap:butt;stroke-linejoin:miter;stroke-miterlimit:4;stroke-opacity:1;stroke-dasharray:none"
         id="5" />
      <path
         d="m 62.50394,48.330708 8.858268,0"
         style="fill:none;stroke:#000000;stroke-width:0.99212605px;stroke-linecap:butt;stroke-linejoin:miter;stroke-miterlimit:4;stroke-opacity:1;stroke-dasharray:none"
         id="6" />
      <path
         d="m 62.50394,66.047243 8.858268,0"
         style="fill:none;stroke:#000000;stroke-width:0.99212605px;stroke-linecap:butt;stroke-linejoin:miter;stroke-miterlimit:4;stroke-opacity:1;stroke-dasharray:none"
         id="7" />
      <path
         d="m 71.362208,39.47244 0,35.433071 26.574804,0 0,-35.433071 -26.574804,0 z"
         style="fill:none;stroke:#000000;stroke-width:0.99212605px;stroke-linecap:butt;stroke-linejoin:miter;stroke-miterlimit:4;stroke-opacity:1;stroke-dasharray:none"
         id="8" />
      <path
         d="m 97.937012,66.047243 8.858268,0"
         style="fill:none;stroke:#000000;stroke-width:0.99212605px;stroke-linecap:butt;stroke-linejoin:miter;stroke-miterlimit:4;stroke-opacity:1;stroke-dasharray:none"
         id="9" />
      <path
         d="m 97.937012,48.330708 8.858268,0"
         style="fill:none;stroke:#000000;stroke-width:0.99212605px;stroke-linecap:butt;stroke-linejoin:miter;stroke-miterlimit:4;stroke-opacity:1;stroke-dasharray:none"
         id="10" />
      <path
         d="m 80.220476,89.078739 0,24.803151 -26.574805,0 0,-24.803151 26.574805,0 z"
         style="fill:none;stroke:#000000;stroke-width:0.99212605px;stroke-linecap:butt;stroke-linejoin:miter;stroke-miterlimit:4;stroke-opacity:1;stroke-dasharray:none"
         id="11" />
      <path
         d="m 22.287402,45.496062 0,-0.389763 c -0.177165,0.283464 -0.460629,0.460629 -0.850393,0.460629 -0.248032,0 -0.496063,-0.07087 -0.673229,-0.212598 -0.212598,-0.141732 -0.389763,-0.318898 -0.496063,-0.566929 -0.106299,-0.248032 -0.177165,-0.531496 -0.177165,-0.850394 0,-0.318897 0.03543,-0.602362 0.141732,-0.850393 0.106299,-0.248032 0.283465,-0.425197 0.496063,-0.56693 0.177166,-0.141732 0.425197,-0.212598 0.673229,-0.212598 0.177165,0 0.35433,0.03543 0.496063,0.106299 0.141732,0.106299 0.283464,0.212599 0.35433,0.318898 l 0,-1.523622 0.531496,0 0,4.287401 z m -1.665354,-1.559055 c 0,0.389764 0.106299,0.708662 0.248032,0.885827 0.177165,0.212598 0.389763,0.318898 0.602362,0.318898 0.248031,0 0.425197,-0.1063 0.602362,-0.283465 0.141732,-0.212598 0.248032,-0.496063 0.248032,-0.885827 0,-0.425197 -0.1063,-0.744094 -0.248032,-0.92126 -0.177165,-0.212598 -0.389764,-0.318897 -0.602362,-0.318897 -0.248032,0 -0.46063,0.106299 -0.602362,0.283464 -0.141733,0.212599 -0.248032,0.496063 -0.248032,0.92126 z"
         style="fill:#000000;fill-opacity:1;fill-rule:nonzero;stroke:none"
         id="12" />
      <path
         d="m 23.633859,41.811023 0,-0.602362 0.531496,0 0,0.602362 z m 0,3.685039 0,-3.11811 0.531496,0 0,3.11811 z"
         style="fill:#000000;fill-opacity:1;fill-rule:nonzero;stroke:none"
         id="13" />
      <path
         d="m 25.086615,45.496062 0,-2.692913 -0.46063,0 0,-0.425197 0.46063,0 0,-0.318897 c 0,-0.212599 0,-0.389764 0.03543,-0.46063 0.07087,-0.141733 0.141733,-0.248032 0.283465,-0.354331 0.141732,-0.07087 0.318897,-0.106299 0.531496,-0.106299 0.141732,0 0.318898,0 0.496063,0.03543 l -0.07087,0.46063 c -0.106299,0 -0.212599,-0.03543 -0.318898,-0.03543 -0.141732,0 -0.283464,0.03543 -0.318898,0.106299 -0.07087,0.07087 -0.106299,0.212598 -0.106299,0.389764 l 0,0.283464 0.602362,0 0,0.425197 -0.602362,0 0,2.692913 z"
         style="fill:#000000;fill-opacity:1;fill-rule:nonzero;stroke:none"
         id="14" />
      <path
         d="m 26.75197,45.496062 0,-2.692913 -0.46063,0 0,-0.425197 0.46063,0 0,-0.318897 c 0,-0.212599 0,-0.389764 0.03543,-0.46063 0.07087,-0.141733 0.141732,-0.248032 0.283464,-0.354331 0.141733,-0.07087 0.318898,-0.106299 0.531496,-0.106299 0.141733,0 0.318898,0 0.496063,0.03543 l -0.07087,0.46063 c -0.106299,0 -0.212598,-0.03543 -0.318897,-0.03543 -0.141733,0 -0.283465,0.03543 -0.354331,0.106299 -0.03543,0.07087 -0.07087,0.212598 -0.07087,0.389764 l 0,0.283464 0.602362,0 0,0.425197 -0.602362,0 0,2.692913 z"
         style="fill:#000000;fill-opacity:1;fill-rule:nonzero;stroke:none"
         id="15" />
      <path
         d="m 22.322836,54.177165 0.496063,0.07087 c -0.03543,0.35433 -0.177166,0.637795 -0.425197,0.81496 -0.248032,0.212599 -0.531496,0.318898 -0.850394,0.318898 -0.425197,0 -0.779528,-0.141732 -1.027559,-0.425197 -0.248032,-0.283464 -0.389764,-0.673228 -0.389764,-1.204724 0,-0.318898 0.03543,-0.602362 0.177165,-0.850394 0.1063,-0.283465 0.248032,-0.46063 0.496063,-0.566929 0.212599,-0.141732 0.46063,-0.212598 0.744095,-0.212598 0.318898,0 0.602362,0.106299 0.814961,0.248031 0.212598,0.177165 0.35433,0.425197 0.425196,0.744094 l -0.531496,0.07087 c -0.03543,-0.212599 -0.106299,-0.354331 -0.248031,-0.46063 -0.106299,-0.1063 -0.283465,-0.177166 -0.46063,-0.177166 -0.248032,0 -0.46063,0.1063 -0.637795,0.318898 -0.177166,0.177165 -0.248032,0.46063 -0.248032,0.885827 0,0.425197 0.07087,0.708661 0.248032,0.92126 0.141732,0.177165 0.35433,0.283464 0.637795,0.283464 0.177165,0 0.354331,-0.07087 0.496063,-0.212598 0.141732,-0.1063 0.248031,-0.318898 0.283465,-0.566929 z"
         style="fill:#000000;fill-opacity:1;fill-rule:nonzero;stroke:none"
         id="16" />
      <path
         d="m 23.102363,53.751968 c 0,-0.566929 0.141732,-0.992126 0.46063,-1.275591 0.283465,-0.248031 0.602362,-0.35433 0.992126,-0.35433 0.425197,0 0.779528,0.141732 1.027559,0.425196 0.283465,0.283465 0.425197,0.673229 0.425197,1.169292 0,0.389763 -0.07087,0.708661 -0.177165,0.956693 -0.141733,0.212598 -0.318898,0.389763 -0.531496,0.531496 -0.248032,0.106299 -0.496063,0.177165 -0.744095,0.177165 -0.46063,0 -0.814961,-0.141732 -1.062992,-0.425197 -0.283465,-0.283464 -0.389764,-0.673228 -0.389764,-1.204724 z m 0.531496,0 c 0,0.389764 0.07087,0.708661 0.248032,0.885826 0.177165,0.212599 0.389764,0.318898 0.673228,0.318898 0.248032,0 0.46063,-0.106299 0.637795,-0.318898 0.177166,-0.177165 0.248032,-0.496062 0.248032,-0.885826 0,-0.389764 -0.07087,-0.673229 -0.248032,-0.885827 -0.177165,-0.212598 -0.389763,-0.283465 -0.637795,-0.283465 -0.283464,0 -0.496063,0.07087 -0.673228,0.283465 -0.177166,0.177165 -0.248032,0.496063 -0.248032,0.885827 z"
         style="fill:#000000;fill-opacity:1;fill-rule:nonzero;stroke:none"
         id="17" />
      <path
         d="m 26.610237,55.311023 0,-3.11811 0.496063,0 0,0.46063 c 0.07087,-0.177166 0.212599,-0.283465 0.389764,-0.389764 0.141732,-0.07087 0.318898,-0.141732 0.531496,-0.141732 0.248032,0 0.425197,0.07087 0.566929,0.141732 0.141733,0.106299 0.248032,0.248031 0.318898,0.425197 0.248031,-0.389764 0.566929,-0.566929 0.956693,-0.566929 0.318898,0 0.566929,0.106299 0.708661,0.248031 0.177166,0.177165 0.248032,0.46063 0.248032,0.814961 l 0,2.125984 -0.496063,0 0,-1.948819 c 0,-0.212598 -0.03543,-0.389764 -0.07087,-0.46063 -0.03543,-0.106299 -0.106299,-0.177165 -0.177166,-0.212598 -0.106299,-0.07087 -0.212598,-0.1063 -0.318897,-0.1063 -0.212599,0 -0.389764,0.07087 -0.566929,0.212599 -0.141733,0.141732 -0.212599,0.389764 -0.212599,0.708661 l 0,1.807087 -0.531496,0 0,-2.019685 c 0,-0.248032 -0.03543,-0.425197 -0.106299,-0.531496 -0.106299,-0.106299 -0.248032,-0.177166 -0.425197,-0.177166 -0.141732,0 -0.283465,0.03543 -0.425197,0.1063 -0.106299,0.106299 -0.212598,0.212598 -0.248031,0.35433 -0.07087,0.141733 -0.1063,0.354331 -0.1063,0.637796 l 0,1.629921 z"
         style="fill:#000000;fill-opacity:1;fill-rule:nonzero;stroke:none"
         id="18" />
      <path
         d="m 37.700789,48.330708 23.031497,0"
         style="fill:none;stroke:#000000;stroke-width:0.99212605px;stroke-linecap:butt;stroke-linejoin:miter;stroke-miterlimit:4;stroke-opacity:1;stroke-dasharray:none"
         id="19" />
      <path
         d="m 55.488191,45.921259 6.555119,2.409449 -6.555119,2.409449 c 1.062992,-1.417323 1.062992,-3.366142 0,-4.818898 z"
         style="fill:#000000;fill-opacity:1;fill-rule:evenodd;stroke:none"
         id="20" />
      <path
         d="m 73.133861,48.330708 23.031497,0"
         style="fill:none;stroke:#000000;stroke-width:0.99212605px;stroke-linecap:butt;stroke-linejoin:miter;stroke-miterlimit:4;stroke-opacity:1;stroke-dasharray:none"
         id="21" />
      <path
         d="m 90.921263,45.921259 6.555119,2.409449 -6.555119,2.409449 c 1.062993,-1.417323 1.062993,-3.366142 0,-4.818898 z"
         style="fill:#000000;fill-opacity:1;fill-rule:evenodd;stroke:none"
         id="22" />
      <path
         d="m 73.133861,66.047243 23.031497,0"
         style="fill:none;stroke:#000000;stroke-width:0.99212605px;stroke-linecap:butt;stroke-linejoin:miter;stroke-miterlimit:4;stroke-opacity:1;stroke-dasharray:none"
         id="23" />
      <path
         d="m 90.921263,63.637794 6.555119,2.409449 -6.555119,2.409449 c 1.062993,-1.417323 1.062993,-3.366142 0,-4.818898 z"
         style="fill:#000000;fill-opacity:1;fill-rule:evenodd;stroke:none"
         id="24" />
      <path
         d="M 74.905515,50.102361 94.393705,64.27559"
         style="fill:none;stroke:#000000;stroke-width:0.99212605px;stroke-linecap:butt;stroke-linejoin:miter;stroke-miterlimit:4;stroke-opacity:1;stroke-dasharray:0.99212602, 0.99212602;stroke-dashoffset:0"
         id="25" />
      <path
         d="m 91.594492,59.244094 3.862205,5.811023 -6.696851,-1.913386 c 1.665354,-0.531496 2.834646,-2.090551 2.834646,-3.897637 z"
         style="fill:#000000;fill-opacity:1;fill-rule:evenodd;stroke:none"
         id="26" />
      <path
         d="M 74.905515,64.27559 94.393705,50.102361"
         style="fill:none;stroke:#000000;stroke-width:0.99212605px;stroke-linecap:butt;stroke-linejoin:miter;stroke-miterlimit:4;stroke-opacity:1;stroke-dasharray:0.99212602, 0.99212602;stroke-dashoffset:0"
         id="27" />
      <path
         d="m 88.759846,51.23622 6.696851,-1.913386 -3.862205,5.811023 c 0,-1.771653 -1.169292,-3.330708 -2.834646,-3.897637 z"
         style="fill:#000000;fill-opacity:1;fill-rule:evenodd;stroke:none"
         id="28" />
      <path
         d="M 78.448822,110.33858 55.417325,103.25197"
         style="fill:none;stroke:#000000;stroke-width:0.99212605px;stroke-linecap:butt;stroke-linejoin:miter;stroke-miterlimit:4;stroke-opacity:1;stroke-dasharray:none"
         id="29" />
      <path
         d="m 59.704727,107.11417 -5.562993,-4.21653 6.980316,-0.38977 c -1.417323,1.06299 -1.984252,2.90551 -1.417323,4.6063 z"
         style="fill:#000000;fill-opacity:1;fill-rule:evenodd;stroke:none"
         id="30" />
      <path
         d="M 78.448822,92.622046 55.417325,99.70866"
         style="fill:none;stroke:#000000;stroke-width:0.99212605px;stroke-linecap:butt;stroke-linejoin:miter;stroke-miterlimit:4;stroke-opacity:1;stroke-dasharray:0.99212602, 0.99212602;stroke-dashoffset:0"
         id="31" />
      <path
         d="m 61.12205,100.48819 -6.980316,-0.35433 5.562993,-4.251972 c -0.566929,1.665355 0,3.543307 1.417323,4.606302 z"
         style="fill:#000000;fill-opacity:1;fill-rule:evenodd;stroke:none"
         id="32" />
      <path
         d="m 37.700789,66.047243 23.031497,0"
         style="fill:none;stroke:#000000;stroke-width:0.99212605px;stroke-linecap:butt;stroke-linejoin:miter;stroke-miterlimit:4;stroke-opacity:1;stroke-dasharray:none"
         id="33" />
      <path
         d="m 55.488191,63.637794 6.555119,2.409449 -6.555119,2.409449 c 1.062992,-1.417323 1.062992,-3.366142 0,-4.818898 z"
         style="fill:#000000;fill-opacity:1;fill-rule:evenodd;stroke:none"
         id="34" />
      <path
         d="M 37.700789,57.188976 60.732286,64.27559"
         style="fill:none;stroke:#000000;stroke-width:0.99212605px;stroke-linecap:butt;stroke-linejoin:miter;stroke-miterlimit:4;stroke-opacity:1;stroke-dasharray:none"
         id="35" />
      <path
         d="m 56.444884,60.448818 5.562992,4.216535 -6.980315,0.389764 c 1.417323,-1.062992 1.984252,-2.940945 1.417323,-4.606299 z"
         style="fill:#000000;fill-opacity:1;fill-rule:evenodd;stroke:none"
         id="36" />
      <path
         d="m 38.019687,36.283464 0.531496,-0.03543 c 0.03543,0.212598 0.07087,0.389764 0.177165,0.531496 0.07087,0.141732 0.248032,0.248032 0.425197,0.318898 0.212598,0.106299 0.425197,0.141732 0.673228,0.141732 0.212599,0 0.389764,-0.03543 0.566929,-0.106299 0.177166,-0.03543 0.283465,-0.141733 0.354331,-0.248032 0.106299,-0.106299 0.141732,-0.248031 0.141732,-0.35433 0,-0.141733 -0.03543,-0.283465 -0.141732,-0.354331 -0.07087,-0.106299 -0.177165,-0.212599 -0.354331,-0.283465 -0.141732,-0.03543 -0.389763,-0.106299 -0.779527,-0.212598 -0.389764,-0.07087 -0.673229,-0.177165 -0.814961,-0.248032 -0.212598,-0.106299 -0.389764,-0.248031 -0.46063,-0.389763 -0.106299,-0.177166 -0.177165,-0.354331 -0.177165,-0.531496 0,-0.248032 0.07087,-0.425197 0.212598,-0.637796 0.106299,-0.177165 0.283465,-0.318897 0.531496,-0.425197 0.212599,-0.07087 0.496063,-0.141732 0.779528,-0.141732 0.318898,0 0.602362,0.07087 0.850394,0.141732 0.248031,0.1063 0.425197,0.283465 0.566929,0.46063 0.106299,0.212599 0.177165,0.425197 0.212598,0.673229 l -0.566929,0.07087 c -0.03543,-0.283465 -0.106299,-0.496063 -0.283464,-0.637795 -0.177166,-0.141733 -0.425197,-0.212599 -0.744095,-0.212599 -0.354331,0 -0.602362,0.07087 -0.779528,0.212599 -0.141732,0.106299 -0.212598,0.248031 -0.212598,0.425196 0,0.177166 0.03543,0.283465 0.177165,0.389764 0.1063,0.106299 0.389764,0.212599 0.850394,0.318898 0.46063,0.106299 0.779528,0.177165 0.956693,0.283464 0.248032,0.1063 0.425197,0.248032 0.531496,0.425197 0.141732,0.177166 0.177165,0.389764 0.177165,0.602362 0,0.248032 -0.07087,0.46063 -0.177165,0.637796 -0.141732,0.212598 -0.318898,0.389763 -0.566929,0.496063 -0.248032,0.106299 -0.531496,0.141732 -0.850394,0.141732 -0.389764,0 -0.708661,-0.03543 -0.956693,-0.141732 -0.283464,-0.141733 -0.46063,-0.283465 -0.637795,-0.531496 -0.141732,-0.212599 -0.212598,-0.46063 -0.212598,-0.779528 z"
         style="fill:#000000;fill-opacity:1;fill-rule:nonzero;stroke:none"
         id="37" />
      <path
         d="m 43.299214,37.204724 0.07087,0.46063 c -0.141732,0.03543 -0.283464,0.07087 -0.389763,0.07087 -0.212599,0 -0.354331,-0.03543 -0.46063,-0.106299 -0.106299,-0.07087 -0.177166,-0.141733 -0.212599,-0.248032 -0.03543,-0.106299 -0.07087,-0.283464 -0.07087,-0.602362 l 0,-1.807087 -0.389764,0 0,-0.389763 0.389764,0 0,-0.779528 0.531496,-0.318898 0,1.098426 0.531496,0 0,0.389763 -0.531496,0 0,1.84252 c 0,0.141732 0,0.212599 0.03543,0.283465 0,0.03543 0.03543,0.07087 0.07087,0.106299 0.03543,0 0.1063,0.03543 0.177166,0.03543 0.07087,0 0.141732,-0.03543 0.248031,-0.03543 z"
         style="fill:#000000;fill-opacity:1;fill-rule:nonzero;stroke:none"
         id="38" />
      <path
         d="m 45.850396,37.311023 c -0.212599,0.141732 -0.389764,0.283465 -0.56693,0.354331 -0.177165,0.03543 -0.389763,0.07087 -0.602362,0.07087 -0.318898,0 -0.602362,-0.07087 -0.779527,-0.248032 -0.177166,-0.141732 -0.283465,-0.35433 -0.283465,-0.637795 0,-0.141732 0.03543,-0.283464 0.106299,-0.425197 0.07087,-0.106299 0.177166,-0.212598 0.283465,-0.283464 0.106299,-0.07087 0.248031,-0.141733 0.389764,-0.177166 0.106299,-0.03543 0.248031,-0.03543 0.46063,-0.07087 0.425196,-0.07087 0.744094,-0.106299 0.921259,-0.177165 0,-0.07087 0.03543,-0.141732 0.03543,-0.141732 0,-0.212599 -0.07087,-0.389764 -0.177165,-0.46063 -0.141732,-0.106299 -0.318898,-0.177166 -0.602362,-0.177166 -0.248032,0 -0.425197,0.03543 -0.531496,0.141733 -0.141733,0.07087 -0.212599,0.212598 -0.283465,0.46063 L 43.724408,35.4685 c 0.03543,-0.248031 0.106299,-0.425196 0.212599,-0.531496 0.106299,-0.141732 0.283464,-0.248031 0.496063,-0.318897 0.177165,-0.07087 0.425197,-0.106299 0.673228,-0.106299 0.283465,0 0.496063,0.03543 0.673228,0.07087 0.141733,0.07087 0.283465,0.141732 0.354331,0.248031 0.07087,0.106299 0.141732,0.212599 0.177165,0.354331 0,0.106299 0,0.248031 0,0.496063 l 0,0.708661 c 0,0.46063 0.03543,0.779528 0.03543,0.92126 0.03543,0.141732 0.07087,0.248032 0.141732,0.354331 l -0.531496,0 c -0.07087,-0.106299 -0.106299,-0.212599 -0.106299,-0.354331 z m -0.07087,-1.204724 c -0.177165,0.106299 -0.46063,0.141732 -0.850393,0.212598 -0.212599,0.03543 -0.354331,0.07087 -0.46063,0.106299 -0.07087,0.03543 -0.141733,0.1063 -0.212599,0.177166 -0.03543,0.07087 -0.07087,0.141732 -0.07087,0.248031 0,0.141732 0.07087,0.248032 0.177165,0.354331 0.1063,0.07087 0.248032,0.141732 0.46063,0.141732 0.212599,0 0.389764,-0.07087 0.531497,-0.141732 0.177165,-0.106299 0.283464,-0.212599 0.35433,-0.354331 0.07087,-0.141732 0.07087,-0.318897 0.07087,-0.531496 z"
         style="fill:#000000;fill-opacity:1;fill-rule:nonzero;stroke:none"
         id="39" />
      <path
         d="m 47.05512,37.948818 0.496063,0.07087 c 0.03543,0.141733 0.106299,0.283465 0.177165,0.354331 0.141733,0.07087 0.318898,0.141732 0.56693,0.141732 0.212598,0 0.425196,-0.07087 0.531496,-0.141732 0.141732,-0.106299 0.248031,-0.248031 0.283464,-0.425197 0.03543,-0.106299 0.03543,-0.318897 0.03543,-0.673228 -0.212598,0.283465 -0.496063,0.389764 -0.850393,0.389764 -0.425197,0 -0.779528,-0.141732 -0.992127,-0.46063 -0.248031,-0.283465 -0.35433,-0.673228 -0.35433,-1.098425 0,-0.283465 0.03543,-0.566929 0.141732,-0.814961 0.106299,-0.248031 0.283465,-0.46063 0.496063,-0.602362 0.177165,-0.106299 0.425197,-0.177165 0.708662,-0.177165 0.35433,0 0.673228,0.141732 0.921259,0.425196 l 0,-0.35433 0.46063,0 0,2.692913 c 0,0.46063 -0.03543,0.814961 -0.141732,1.027559 -0.106299,0.177165 -0.248031,0.354331 -0.46063,0.46063 -0.212598,0.106299 -0.496063,0.177165 -0.779527,0.177165 -0.389764,0 -0.673229,-0.07087 -0.92126,-0.248031 -0.212599,-0.177166 -0.318898,-0.425197 -0.318898,-0.744095 z m 0.425197,-1.877952 c 0,0.389763 0.07087,0.708661 0.248031,0.885826 0.177166,0.177166 0.354331,0.283465 0.602363,0.283465 0.248031,0 0.46063,-0.106299 0.602362,-0.283465 0.177165,-0.177165 0.248031,-0.46063 0.248031,-0.885826 0,-0.354331 -0.07087,-0.637796 -0.248031,-0.850394 -0.177166,-0.177165 -0.354331,-0.283465 -0.602362,-0.283465 -0.248032,0 -0.425197,0.1063 -0.602363,0.283465 -0.141732,0.177165 -0.248031,0.46063 -0.248031,0.850394 z"
         style="fill:#000000;fill-opacity:1;fill-rule:nonzero;stroke:none"
         id="40" />
      <path
         d="m 52.618112,36.673228 0.531496,0.07087 c -0.07087,0.318898 -0.248031,0.566929 -0.46063,0.744094 -0.248031,0.177166 -0.531496,0.248032 -0.885826,0.248032 -0.46063,0 -0.814961,-0.141732 -1.098426,-0.389764 -0.248031,-0.283464 -0.389763,-0.673228 -0.389763,-1.204724 0,-0.531496 0.141732,-0.92126 0.389763,-1.204725 0.283465,-0.283464 0.637796,-0.425196 1.062993,-0.425196 0.425196,0 0.744094,0.141732 1.027559,0.425196 0.248031,0.283465 0.389763,0.673229 0.389763,1.169292 0,0.03543 0,0.106299 0,0.141732 l -2.338582,0 c 0.03543,0.354331 0.141732,0.602362 0.283464,0.779528 0.177166,0.212598 0.425197,0.283464 0.673229,0.283464 0.177165,0 0.35433,-0.03543 0.496063,-0.141732 0.141732,-0.106299 0.248031,-0.283465 0.318897,-0.496063 z m -1.73622,-0.850394 1.73622,0 c -0.03543,-0.248031 -0.07087,-0.46063 -0.177165,-0.602362 -0.177165,-0.177165 -0.389764,-0.283465 -0.673228,-0.283465 -0.248032,0 -0.425197,0.07087 -0.602363,0.248032 -0.177165,0.141732 -0.248031,0.354331 -0.283464,0.637795 z"
         style="fill:#000000;fill-opacity:1;fill-rule:nonzero;stroke:none"
         id="41" />
      <path
         d="m 57.330711,37.665354 -0.531496,0 0,-3.330709 c -0.106299,0.106299 -0.283465,0.212599 -0.496063,0.354331 -0.212599,0.106299 -0.389764,0.212598 -0.566929,0.283464 l 0,-0.531496 c 0.318897,-0.141732 0.566929,-0.318897 0.779527,-0.496063 0.212599,-0.212598 0.389764,-0.389763 0.46063,-0.566929 l 0.354331,0 z"
         style="fill:#000000;fill-opacity:1;fill-rule:nonzero;stroke:none"
         id="42" />
      <path
         d="m 73.736223,36.531496 0.531496,-0.07087 c 0,0.248032 0.07087,0.389764 0.177166,0.531496 0.07087,0.141733 0.212598,0.248032 0.425197,0.354331 0.177165,0.07087 0.425197,0.106299 0.637795,0.106299 0.248032,0 0.425197,-0.03543 0.602362,-0.07087 0.141733,-0.07087 0.283465,-0.177165 0.354331,-0.283464 0.07087,-0.1063 0.141732,-0.212599 0.141732,-0.354331 0,-0.141732 -0.07087,-0.248032 -0.141732,-0.354331 -0.07087,-0.106299 -0.212598,-0.177165 -0.389764,-0.248031 -0.106299,-0.07087 -0.354331,-0.141733 -0.744094,-0.212599 -0.389764,-0.106299 -0.673229,-0.177165 -0.850394,-0.283464 -0.177165,-0.106299 -0.354331,-0.248032 -0.46063,-0.389764 -0.07087,-0.177165 -0.141732,-0.354331 -0.141732,-0.531496 0,-0.212598 0.07087,-0.425197 0.177165,-0.602362 0.141732,-0.212599 0.318898,-0.354331 0.566929,-0.425197 0.212599,-0.106299 0.496063,-0.177165 0.779528,-0.177165 0.318897,0 0.602362,0.07087 0.850394,0.177165 0.212598,0.106299 0.425196,0.248031 0.531496,0.46063 0.141732,0.177165 0.212598,0.425197 0.212598,0.673228 l -0.531496,0.03543 c -0.03543,-0.283464 -0.141732,-0.496063 -0.283465,-0.637795 -0.177165,-0.106299 -0.425196,-0.177165 -0.779527,-0.177165 -0.318898,0 -0.566929,0.03543 -0.744095,0.177165 -0.141732,0.106299 -0.212598,0.283465 -0.212598,0.46063 0,0.141732 0.03543,0.283464 0.141732,0.389764 0.106299,0.07087 0.389764,0.177165 0.850394,0.283464 0.496063,0.106299 0.779527,0.212599 0.956693,0.283465 0.248031,0.106299 0.46063,0.248031 0.566929,0.425197 0.106299,0.177165 0.177165,0.389763 0.177165,0.602362 0,0.248031 -0.07087,0.46063 -0.212598,0.673228 -0.106299,0.177166 -0.318898,0.354331 -0.531496,0.46063 -0.248032,0.106299 -0.531496,0.177165 -0.850394,0.177165 -0.389764,0 -0.708661,-0.07087 -0.956693,-0.177165 -0.283464,-0.106299 -0.496063,-0.283464 -0.637795,-0.496063 -0.141732,-0.248031 -0.212599,-0.496063 -0.212599,-0.779527 z"
         style="fill:#000000;fill-opacity:1;fill-rule:nonzero;stroke:none"
         id="43" />
      <path
         d="m 79.015751,37.417322 0.07087,0.496063 c -0.141732,0 -0.283464,0.03543 -0.389763,0.03543 -0.212599,0 -0.354331,-0.03543 -0.46063,-0.106299 -0.1063,-0.03543 -0.177166,-0.141732 -0.212599,-0.212598 -0.03543,-0.106299 -0.07087,-0.318898 -0.07087,-0.637796 l 0,-1.807086 -0.389764,0 0,-0.389764 0.389764,0 0,-0.779527 0.531496,-0.318898 0,1.098425 0.531496,0 0,0.389764 -0.531496,0 0,1.84252 c 0,0.141732 0,0.248031 0,0.283464 0.03543,0.03543 0.07087,0.07087 0.106299,0.106299 0.03543,0.03543 0.1063,0.03543 0.177166,0.03543 0.07087,0 0.141732,0 0.248031,-0.03543 z"
         style="fill:#000000;fill-opacity:1;fill-rule:nonzero;stroke:none"
         id="44" />
      <path
         d="m 81.531499,37.523622 c -0.177165,0.177165 -0.35433,0.283464 -0.531496,0.35433 -0.212598,0.07087 -0.389764,0.106299 -0.602362,0.106299 -0.354331,0 -0.602362,-0.106299 -0.779528,-0.248031 -0.177165,-0.177165 -0.283464,-0.389764 -0.283464,-0.637795 0,-0.177166 0.03543,-0.318898 0.106299,-0.425197 0.07087,-0.141732 0.177165,-0.248032 0.283465,-0.318898 0.106299,-0.07087 0.212598,-0.141732 0.35433,-0.177165 0.1063,0 0.283465,-0.03543 0.496063,-0.07087 0.425197,-0.03543 0.744095,-0.1063 0.92126,-0.177166 0,-0.07087 0,-0.106299 0,-0.141732 0,-0.212598 -0.03543,-0.354331 -0.141732,-0.46063 -0.141732,-0.106299 -0.318898,-0.177165 -0.602362,-0.177165 -0.248032,0 -0.425197,0.03543 -0.531496,0.141732 -0.141733,0.07087 -0.212599,0.248032 -0.283465,0.46063 l -0.496063,-0.07087 c 0.03543,-0.212599 0.106299,-0.389764 0.212598,-0.531496 0.1063,-0.141732 0.283465,-0.248032 0.46063,-0.318898 0.212599,-0.07087 0.46063,-0.106299 0.708662,-0.106299 0.283464,0 0.496063,0.03543 0.673228,0.106299 0.141733,0.03543 0.283465,0.141732 0.354331,0.212599 0.07087,0.106299 0.141732,0.212598 0.141732,0.35433 0.03543,0.1063 0.03543,0.248032 0.03543,0.496063 l 0,0.708662 c 0,0.496063 0.03543,0.81496 0.03543,0.92126 0.03543,0.141732 0.07087,0.248031 0.141733,0.389763 l -0.566929,0 c -0.03543,-0.106299 -0.07087,-0.248031 -0.1063,-0.389763 z m -0.03543,-1.169292 c -0.177165,0.07087 -0.46063,0.141732 -0.850393,0.177166 -0.212599,0.03543 -0.389764,0.07087 -0.46063,0.106299 -0.1063,0.03543 -0.177166,0.106299 -0.212599,0.177165 -0.03543,0.07087 -0.07087,0.177165 -0.07087,0.248032 0,0.141732 0.03543,0.248031 0.141732,0.35433 0.106299,0.1063 0.283465,0.141733 0.496063,0.141733 0.177166,0 0.354331,-0.03543 0.531496,-0.141733 0.141733,-0.07087 0.283465,-0.212598 0.354331,-0.35433 0.03543,-0.1063 0.07087,-0.283465 0.07087,-0.531496 z"
         style="fill:#000000;fill-opacity:1;fill-rule:nonzero;stroke:none"
         id="45" />
      <path
         d="m 82.771657,38.161417 0.496063,0.07087 c 0.03543,0.177165 0.07087,0.283464 0.177165,0.354331 0.141733,0.106299 0.318898,0.141732 0.531496,0.141732 0.248032,0 0.46063,-0.03543 0.566929,-0.141732 0.141733,-0.1063 0.248032,-0.248032 0.283465,-0.425197 0.03543,-0.106299 0.03543,-0.318898 0.03543,-0.673229 -0.248031,0.283465 -0.531496,0.425197 -0.850394,0.425197 -0.425196,0 -0.779527,-0.177165 -0.992126,-0.46063 -0.248031,-0.318897 -0.35433,-0.708661 -0.35433,-1.133858 0,-0.283464 0.03543,-0.566929 0.141732,-0.81496 0.106299,-0.248032 0.283464,-0.425197 0.46063,-0.56693 0.212598,-0.141732 0.46063,-0.212598 0.744094,-0.212598 0.354331,0 0.673229,0.141732 0.885827,0.425197 l 0,-0.354331 0.496063,0 0,2.692913 c 0,0.46063 -0.03543,0.814961 -0.141732,1.027559 -0.106299,0.212599 -0.248032,0.354331 -0.46063,0.46063 -0.212598,0.141733 -0.496063,0.177166 -0.814961,0.177166 -0.35433,0 -0.673228,-0.07087 -0.885827,-0.248032 -0.212598,-0.141732 -0.35433,-0.425197 -0.318897,-0.744094 z m 0.425197,-1.877953 c 0,0.425197 0.07087,0.708661 0.248031,0.885827 0.141733,0.212598 0.354331,0.283464 0.602362,0.283464 0.248032,0 0.46063,-0.07087 0.602363,-0.283464 0.177165,-0.177166 0.248031,-0.46063 0.248031,-0.850394 0,-0.389764 -0.07087,-0.673228 -0.248031,-0.885827 -0.177166,-0.177165 -0.354331,-0.283464 -0.602363,-0.283464 -0.248031,0 -0.425196,0.106299 -0.602362,0.283464 -0.177165,0.212599 -0.248031,0.496063 -0.248031,0.850394 z"
         style="fill:#000000;fill-opacity:1;fill-rule:nonzero;stroke:none"
         id="46" />
      <path
         d="m 88.334649,36.885826 0.531496,0.07087 c -0.07087,0.318898 -0.248031,0.56693 -0.46063,0.744095 -0.248031,0.177165 -0.531496,0.283464 -0.885826,0.283464 -0.46063,0 -0.814961,-0.141732 -1.098426,-0.425196 -0.283464,-0.283465 -0.389764,-0.673229 -0.389764,-1.169292 0,-0.531496 0.1063,-0.956693 0.389764,-1.240157 0.283465,-0.283465 0.637796,-0.425197 1.062992,-0.425197 0.389764,0 0.744095,0.141732 0.992126,0.425197 0.283465,0.283464 0.425197,0.673228 0.425197,1.204724 0,0.03543 0,0.07087 0,0.141732 l -2.338582,0 c 0.03543,0.318898 0.106299,0.602363 0.283464,0.779528 0.177166,0.177165 0.389764,0.248032 0.673229,0.248032 0.177165,0 0.35433,-0.03543 0.496063,-0.141733 0.106299,-0.106299 0.248031,-0.248031 0.318897,-0.496063 z m -1.73622,-0.850393 1.73622,0 c -0.03543,-0.248032 -0.106299,-0.46063 -0.212598,-0.56693 -0.141733,-0.212598 -0.389764,-0.318897 -0.637796,-0.318897 -0.248031,0 -0.460629,0.07087 -0.602362,0.248031 -0.177165,0.177166 -0.283464,0.389764 -0.283464,0.637796 z"
         style="fill:#000000;fill-opacity:1;fill-rule:nonzero;stroke:none"
         id="47" />
      <path
         d="m 93.826775,37.381889 0,0.531496 -2.834645,0 c 0,-0.141732 0,-0.248031 0.07087,-0.389763 0.07087,-0.177166 0.177165,-0.354331 0.318897,-0.56693 0.177166,-0.177165 0.389764,-0.389763 0.708662,-0.637795 0.46063,-0.389764 0.779527,-0.673228 0.956693,-0.92126 0.141732,-0.212598 0.212598,-0.425197 0.212598,-0.637795 0,-0.212598 -0.07087,-0.389764 -0.212598,-0.531496 -0.141732,-0.141732 -0.354331,-0.212598 -0.566929,-0.212598 -0.248032,0 -0.46063,0.07087 -0.637796,0.248031 -0.141732,0.141732 -0.212598,0.354331 -0.212598,0.637795 l -0.531496,-0.07087 c 0.03543,-0.389764 0.177165,-0.708661 0.389764,-0.92126 0.248031,-0.212598 0.566929,-0.318897 0.992126,-0.318897 0.425197,0 0.744094,0.106299 0.992126,0.35433 0.212598,0.212599 0.35433,0.496063 0.35433,0.850394 0,0.177165 -0.03543,0.318898 -0.106299,0.496063 -0.07087,0.177165 -0.177165,0.354331 -0.354331,0.531496 -0.177165,0.177165 -0.425196,0.425197 -0.81496,0.744095 -0.318898,0.283464 -0.531496,0.46063 -0.602362,0.531496 -0.1063,0.106299 -0.177166,0.212598 -0.212599,0.283464 z"
         style="fill:#000000;fill-opacity:1;fill-rule:nonzero;stroke:none"
         id="48" />
      <path
         d="m 106.79528,48.330708 8.85827,0 0,44.291338 -35.433074,0"
         style="fill:none;stroke:#000000;stroke-width:0.99212605px;stroke-linecap:butt;stroke-linejoin:miter;stroke-miterlimit:4;stroke-opacity:1;stroke-dasharray:none"
         id="49" />
      <path
         d="m 53.645671,101.48031 -26.574804,0 0,-35.433067"
         style="fill:none;stroke:#000000;stroke-width:0.99212605px;stroke-linecap:butt;stroke-linejoin:miter;stroke-miterlimit:4;stroke-opacity:1;stroke-dasharray:none"
         id="50" />
      <path
         d="m 57.188979,117.70866 0.566929,0.14173 c -0.141732,0.46063 -0.354331,0.81496 -0.637795,1.06299 -0.318898,0.24804 -0.708662,0.35433 -1.133859,0.35433 -0.496063,0 -0.850394,-0.0709 -1.133858,-0.28346 -0.318898,-0.17717 -0.531496,-0.46063 -0.673228,-0.81496 -0.141733,-0.35433 -0.212599,-0.74409 -0.212599,-1.13386 0,-0.46063 0.07087,-0.85039 0.248032,-1.16929 0.177165,-0.35433 0.389763,-0.60236 0.708661,-0.77953 0.318898,-0.14173 0.673228,-0.24803 1.062992,-0.24803 0.425197,0 0.779528,0.1063 1.062992,0.3189 0.318898,0.24803 0.496063,0.53149 0.637796,0.92126 l -0.566929,0.14173 c -0.1063,-0.3189 -0.248032,-0.5315 -0.425197,-0.67323 -0.212599,-0.14173 -0.425197,-0.2126 -0.744095,-0.2126 -0.318898,0 -0.602362,0.0709 -0.814961,0.2126 -0.212598,0.17717 -0.389763,0.38977 -0.460629,0.6378 -0.1063,0.28346 -0.141733,0.56693 -0.141733,0.85039 0,0.35433 0.07087,0.67323 0.177166,0.95669 0.106299,0.24804 0.248031,0.46063 0.496063,0.60237 0.212598,0.14173 0.46063,0.21259 0.708661,0.21259 0.318898,0 0.602362,-0.10629 0.814961,-0.28346 0.212598,-0.17716 0.35433,-0.46063 0.46063,-0.81496 z"
         style="fill:#000000;fill-opacity:1;fill-rule:nonzero;stroke:none"
         id="51" />
      <path
         d="m 58.181105,117.63779 c 0,-0.56693 0.177165,-0.99212 0.496063,-1.27559 0.248031,-0.2126 0.566929,-0.31889 0.956693,-0.31889 0.425197,0 0.779527,0.14173 1.062992,0.38976 0.283464,0.28346 0.389764,0.67323 0.389764,1.16929 0,0.4252 -0.03543,0.70866 -0.177166,0.95669 -0.106299,0.2126 -0.283464,0.38977 -0.531496,0.5315 -0.212598,0.14173 -0.46063,0.17716 -0.744094,0.17716 -0.425197,0 -0.779528,-0.14173 -1.062993,-0.38976 -0.248031,-0.28346 -0.389763,-0.70866 -0.389763,-1.24016 z m 0.531496,0 c 0,0.4252 0.106299,0.70867 0.283464,0.92126 0.177166,0.17717 0.389764,0.28347 0.637796,0.28347 0.283464,0 0.496063,-0.1063 0.673228,-0.28347 0.177165,-0.21259 0.248032,-0.53149 0.248032,-0.92126 0,-0.38976 -0.07087,-0.67322 -0.248032,-0.88582 -0.177165,-0.17717 -0.389764,-0.28347 -0.673228,-0.28347 -0.248032,0 -0.46063,0.1063 -0.637796,0.28347 -0.177165,0.2126 -0.283464,0.49606 -0.283464,0.88582 z"
         style="fill:#000000;fill-opacity:1;fill-rule:nonzero;stroke:none"
         id="52" />
      <path
         d="m 61.724412,119.19685 0,-3.08268 0.46063,0 0,0.4252 c 0.106299,-0.14173 0.248031,-0.28347 0.389764,-0.38977 0.177165,-0.0709 0.35433,-0.10629 0.566929,-0.10629 0.212598,0 0.425197,0.0354 0.566929,0.14173 0.141732,0.0709 0.248031,0.2126 0.318898,0.38976 0.248031,-0.35433 0.566929,-0.53149 0.956693,-0.53149 0.283464,0 0.531496,0.0709 0.708661,0.24803 0.177165,0.17716 0.248032,0.42519 0.248032,0.77952 l 0,2.12599 -0.531497,0 0,-1.94882 c 0,-0.2126 0,-0.35433 -0.03543,-0.46063 -0.03543,-0.0709 -0.106299,-0.17717 -0.212598,-0.2126 -0.07087,-0.0709 -0.177165,-0.1063 -0.318898,-0.1063 -0.212598,0 -0.389764,0.1063 -0.531496,0.24803 -0.141732,0.14174 -0.212598,0.35433 -0.212598,0.67323 l 0,1.80709 -0.531496,0 0,-2.01969 c 0,-0.21259 -0.03543,-0.38976 -0.141733,-0.53149 -0.07087,-0.1063 -0.212598,-0.17717 -0.389763,-0.17717 -0.177166,0 -0.318898,0.0709 -0.425197,0.14173 -0.141733,0.0709 -0.212599,0.17717 -0.283465,0.3189 -0.03543,0.17717 -0.07087,0.38977 -0.07087,0.67323 l 0,1.59449 z"
         style="fill:#000000;fill-opacity:1;fill-rule:nonzero;stroke:none"
         id="53" />
      <path
         d="m 66.720475,119.19685 0,-3.08268 0.46063,0 0,0.4252 c 0.106299,-0.14173 0.248032,-0.28347 0.389764,-0.38977 0.177165,-0.0709 0.354331,-0.10629 0.566929,-0.10629 0.248031,0 0.425197,0.0354 0.566929,0.14173 0.141732,0.0709 0.248032,0.2126 0.318898,0.38976 0.248031,-0.35433 0.566929,-0.53149 0.956693,-0.53149 0.318897,0 0.531496,0.0709 0.708661,0.24803 0.177166,0.17716 0.248032,0.42519 0.248032,0.77952 l 0,2.12599 -0.531496,0 0,-1.94882 c 0,-0.2126 0,-0.35433 -0.03543,-0.46063 -0.03543,-0.0709 -0.1063,-0.17717 -0.177166,-0.2126 -0.106299,-0.0709 -0.212598,-0.1063 -0.318897,-0.1063 -0.212599,0 -0.425197,0.1063 -0.56693,0.24803 -0.141732,0.14174 -0.212598,0.35433 -0.212598,0.67323 l 0,1.80709 -0.531496,0 0,-2.01969 c 0,-0.21259 -0.03543,-0.38976 -0.106299,-0.53149 -0.1063,-0.1063 -0.248032,-0.17717 -0.425197,-0.17717 -0.141733,0 -0.283465,0.0709 -0.425197,0.14173 -0.106299,0.0709 -0.212599,0.17717 -0.283465,0.3189 -0.03543,0.17717 -0.07087,0.38977 -0.07087,0.67323 l 0,1.59449 z"
         style="fill:#000000;fill-opacity:1;fill-rule:nonzero;stroke:none"
         id="54" />
      <path
         d="m 71.539373,117.63779 c 0,-0.56693 0.141732,-0.99212 0.46063,-1.27559 0.283464,-0.2126 0.602362,-0.31889 0.992126,-0.31889 0.425197,0 0.779527,0.14173 1.062992,0.38976 0.248032,0.28346 0.389764,0.67323 0.389764,1.16929 0,0.4252 -0.07087,0.70866 -0.177166,0.95669 -0.106299,0.2126 -0.283464,0.38977 -0.531496,0.5315 -0.212598,0.14173 -0.46063,0.17716 -0.744094,0.17716 -0.425197,0 -0.779528,-0.14173 -1.062992,-0.38976 -0.248032,-0.28346 -0.389764,-0.70866 -0.389764,-1.24016 z m 0.531496,0 c 0,0.4252 0.106299,0.70867 0.248032,0.92126 0.177165,0.17717 0.425196,0.28347 0.673228,0.28347 0.248031,0 0.496063,-0.1063 0.637795,-0.28347 0.177166,-0.21259 0.283465,-0.53149 0.283465,-0.92126 0,-0.38976 -0.106299,-0.67322 -0.283465,-0.88582 -0.177165,-0.17717 -0.389764,-0.28347 -0.637795,-0.28347 -0.248032,0 -0.496063,0.1063 -0.673228,0.28347 -0.141733,0.2126 -0.248032,0.49606 -0.248032,0.88582 z"
         style="fill:#000000;fill-opacity:1;fill-rule:nonzero;stroke:none"
         id="55" />
      <path
         d="m 75.08268,119.19685 0,-3.08268 0.46063,0 0,0.4252 c 0.212599,-0.35433 0.566929,-0.49606 0.992126,-0.49606 0.177165,0 0.354331,0.0354 0.531496,0.0709 0.141732,0.0709 0.248032,0.17717 0.318898,0.28347 0.106299,0.1063 0.141732,0.24803 0.177165,0.38976 0.03543,0.1063 0.03543,0.24803 0.03543,0.49606 l 0,1.91339 -0.531496,0 0,-1.87795 c 0,-0.2126 -0.03543,-0.38977 -0.07087,-0.49607 -0.03543,-0.1063 -0.106299,-0.17716 -0.212598,-0.24803 -0.1063,-0.0709 -0.212599,-0.1063 -0.354331,-0.1063 -0.248032,0 -0.425197,0.0709 -0.602362,0.2126 -0.141733,0.17717 -0.248032,0.4252 -0.248032,0.81496 l 0,1.70079 z"
         style="fill:#000000;fill-opacity:1;fill-rule:nonzero;stroke:none"
         id="56" />
      <path
         d="m 78.200791,117.92126 0,-0.5315 1.629921,0 0,0.5315 z"
         style="fill:#000000;fill-opacity:1;fill-rule:nonzero;stroke:none"
         id="57" />
      <path
         d="m 80.397641,119.19685 0,-3.08268 0.496063,0 0,0.4252 c 0.07087,-0.14173 0.212598,-0.28347 0.389764,-0.38977 0.141732,-0.0709 0.354331,-0.10629 0.531496,-0.10629 0.248031,0 0.425197,0.0354 0.566929,0.14173 0.177165,0.0709 0.248032,0.2126 0.318898,0.38976 0.248031,-0.35433 0.566929,-0.53149 0.956693,-0.53149 0.318897,0 0.566929,0.0709 0.708661,0.24803 0.177165,0.17716 0.248032,0.42519 0.248032,0.77952 l 0,2.12599 -0.496063,0 0,-1.94882 c 0,-0.2126 -0.03543,-0.35433 -0.07087,-0.46063 -0.03543,-0.0709 -0.106299,-0.17717 -0.177165,-0.2126 -0.106299,-0.0709 -0.212598,-0.1063 -0.318898,-0.1063 -0.212598,0 -0.389763,0.1063 -0.531496,0.24803 -0.141732,0.14174 -0.248031,0.35433 -0.248031,0.67323 l 0,1.80709 -0.496063,0 0,-2.01969 c 0,-0.21259 -0.07087,-0.38976 -0.141732,-0.53149 -0.07087,-0.1063 -0.212599,-0.17717 -0.425197,-0.17717 -0.141733,0 -0.283465,0.0709 -0.425197,0.14173 -0.106299,0.0709 -0.212599,0.17717 -0.248032,0.3189 -0.07087,0.17717 -0.106299,0.38977 -0.106299,0.67323 l 0,1.59449 z"
         style="fill:#000000;fill-opacity:1;fill-rule:nonzero;stroke:none"
         id="58" />
      <path
         d="m 85.216539,117.63779 c 0,-0.56693 0.177165,-0.99212 0.496063,-1.27559 0.248031,-0.2126 0.566929,-0.31889 0.956693,-0.31889 0.425197,0 0.779527,0.14173 1.062992,0.38976 0.283465,0.28346 0.389764,0.67323 0.389764,1.16929 0,0.4252 -0.03543,0.70866 -0.177166,0.95669 -0.106299,0.2126 -0.283464,0.38977 -0.531496,0.5315 -0.212598,0.14173 -0.46063,0.17716 -0.744094,0.17716 -0.425197,0 -0.779528,-0.14173 -1.062992,-0.38976 -0.248032,-0.28346 -0.389764,-0.70866 -0.389764,-1.24016 z m 0.531496,0 c 0,0.4252 0.106299,0.70867 0.283464,0.92126 0.177166,0.17717 0.389764,0.28347 0.637796,0.28347 0.283464,0 0.496063,-0.1063 0.673228,-0.28347 0.177166,-0.21259 0.248032,-0.53149 0.248032,-0.92126 0,-0.38976 -0.07087,-0.67322 -0.248032,-0.88582 -0.177165,-0.17717 -0.389764,-0.28347 -0.673228,-0.28347 -0.248032,0 -0.46063,0.1063 -0.637796,0.28347 -0.177165,0.2126 -0.283464,0.49606 -0.283464,0.88582 z"
         style="fill:#000000;fill-opacity:1;fill-rule:nonzero;stroke:none"
         id="59" />
      <path
         d="m 90.779531,119.19685 0,-0.38977 c -0.212598,0.3189 -0.496063,0.46063 -0.885827,0.46063 -0.248031,0 -0.46063,-0.0709 -0.673228,-0.17716 -0.212598,-0.14173 -0.354331,-0.35433 -0.496063,-0.60236 -0.106299,-0.24803 -0.141732,-0.49607 -0.141732,-0.81496 0,-0.3189 0.03543,-0.60237 0.141732,-0.8504 0.106299,-0.24803 0.248031,-0.46063 0.46063,-0.60236 0.212598,-0.14173 0.425197,-0.17716 0.708661,-0.17716 0.177166,0 0.354331,0.0354 0.496063,0.10629 0.141733,0.0709 0.248032,0.17717 0.354331,0.3189 l 0,-1.55905 0.531496,0 0,4.2874 z m -1.665354,-1.52362 c 0,0.38976 0.07087,0.67323 0.248031,0.88582 0.177166,0.17717 0.354331,0.28347 0.602363,0.28347 0.212598,0 0.425196,-0.1063 0.566929,-0.28347 0.177165,-0.17716 0.248031,-0.46063 0.248031,-0.85039 0,-0.4252 -0.07087,-0.74409 -0.248031,-0.95669 -0.141733,-0.17717 -0.354331,-0.28347 -0.602363,-0.28347 -0.248031,0 -0.425196,0.1063 -0.602362,0.28347 -0.141732,0.17716 -0.212598,0.49606 -0.212598,0.92126 z"
         style="fill:#000000;fill-opacity:1;fill-rule:nonzero;stroke:none"
         id="60" />
      <path
         d="m 94.216539,118.20472 0.566929,0.0709 c -0.106299,0.3189 -0.248031,0.56693 -0.496063,0.74409 -0.212598,0.17717 -0.531496,0.24803 -0.885826,0.24803 -0.46063,0 -0.814961,-0.14173 -1.098426,-0.42519 -0.248031,-0.24803 -0.389764,-0.67323 -0.389764,-1.16929 0,-0.5315 0.141733,-0.92126 0.425197,-1.20473 0.248032,-0.28346 0.602363,-0.42519 1.027559,-0.42519 0.425197,0 0.779528,0.14173 1.02756,0.42519 0.248031,0.28347 0.389763,0.67323 0.389763,1.16929 0,0.0354 0,0.0709 0,0.14174 l -2.303149,0 c 0,0.35433 0.106299,0.60236 0.283464,0.77952 0.177166,0.2126 0.389764,0.28347 0.637796,0.28347 0.212598,0 0.35433,-0.0354 0.496063,-0.14173 0.141732,-0.1063 0.248031,-0.28347 0.318897,-0.49607 z m -1.73622,-0.85039 1.73622,0 c 0,-0.24803 -0.07087,-0.46063 -0.177165,-0.60236 -0.177166,-0.17717 -0.389764,-0.28347 -0.673229,-0.28347 -0.212598,0 -0.425196,0.0709 -0.602362,0.24803 -0.177165,0.14174 -0.248031,0.35433 -0.283464,0.6378 z"
         style="fill:#000000;fill-opacity:1;fill-rule:nonzero;stroke:none"
         id="61" />
      <path
         d="m 54.141734,126.70866 0,-4.2874 2.905512,0 0,0.49606 -2.338582,0 0,1.34646 2.019685,0 0,0.49606 -2.019685,0 0,1.94882 z"
         style="fill:#000000;fill-opacity:1;fill-rule:nonzero;stroke:none"
         id="62" />
      <path
         d="m 59.846459,125.71653 0.531496,0.0709 c -0.07087,0.3189 -0.248031,0.56693 -0.46063,0.74409 -0.248031,0.17717 -0.531496,0.24804 -0.885827,0.24804 -0.46063,0 -0.81496,-0.14174 -1.098425,-0.4252 -0.248031,-0.28347 -0.389764,-0.67323 -0.389764,-1.16929 0,-0.5315 0.141733,-0.92126 0.389764,-1.24016 0.283465,-0.28346 0.637795,-0.4252 1.062992,-0.4252 0.425197,0 0.744095,0.14174 1.027559,0.4252 0.248032,0.28346 0.389764,0.67323 0.389764,1.20472 0,0.0354 0,0.0709 0,0.14174 l -2.338583,0 c 0.03543,0.35433 0.1063,0.60236 0.283465,0.77952 0.177165,0.17717 0.389764,0.28347 0.673228,0.28347 0.177166,0 0.354331,-0.0709 0.496063,-0.17717 0.141733,-0.0709 0.248032,-0.24803 0.318898,-0.46063 z m -1.73622,-0.85039 1.73622,0 c -0.03543,-0.28346 -0.07087,-0.46063 -0.212598,-0.60236 -0.141733,-0.2126 -0.354331,-0.3189 -0.637796,-0.3189 -0.248031,0 -0.46063,0.1063 -0.602362,0.24803 -0.177165,0.17717 -0.248031,0.38977 -0.283464,0.67323 z"
         style="fill:#000000;fill-opacity:1;fill-rule:nonzero;stroke:none"
         id="63" />
      <path
         d="m 63.177168,125.71653 0.566929,0.0709 c -0.106299,0.3189 -0.248031,0.56693 -0.496063,0.74409 -0.212598,0.17717 -0.531496,0.24804 -0.885827,0.24804 -0.46063,0 -0.81496,-0.14174 -1.098425,-0.4252 -0.248032,-0.28347 -0.389764,-0.67323 -0.389764,-1.16929 0,-0.5315 0.141732,-0.92126 0.389764,-1.24016 0.283465,-0.28346 0.637795,-0.4252 1.062992,-0.4252 0.425197,0 0.744095,0.14174 1.027559,0.4252 0.248032,0.28346 0.389764,0.67323 0.389764,1.20472 0,0.0354 0,0.0709 0,0.14174 l -2.338583,0 c 0.03543,0.35433 0.141733,0.60236 0.318898,0.77952 0.177165,0.17717 0.389764,0.28347 0.637795,0.28347 0.177166,0 0.354331,-0.0709 0.496063,-0.17717 0.141733,-0.0709 0.248032,-0.24803 0.318898,-0.46063 z m -1.736221,-0.85039 1.736221,0 c 0,-0.28346 -0.07087,-0.46063 -0.177165,-0.60236 -0.177166,-0.2126 -0.389764,-0.3189 -0.673229,-0.3189 -0.248031,0 -0.425197,0.1063 -0.602362,0.24803 -0.177165,0.17717 -0.248032,0.38977 -0.283465,0.67323 z"
         style="fill:#000000;fill-opacity:1;fill-rule:nonzero;stroke:none"
         id="64" />
      <path
         d="m 66.401577,126.70866 0,-0.38976 c -0.177165,0.31889 -0.460629,0.46063 -0.850393,0.46063 -0.248032,0 -0.496063,-0.0709 -0.708662,-0.2126 -0.177165,-0.14173 -0.35433,-0.3189 -0.46063,-0.56693 -0.106299,-0.24803 -0.177165,-0.5315 -0.177165,-0.8504 0,-0.31889 0.03543,-0.60236 0.141732,-0.85039 0.106299,-0.24803 0.283465,-0.4252 0.46063,-0.56693 0.212599,-0.14173 0.46063,-0.2126 0.708662,-0.2126 0.177165,0 0.35433,0.0354 0.496063,0.14174 0.141732,0.0709 0.283464,0.17716 0.35433,0.28346 l 0,-1.52362 0.531496,0 0,4.2874 z m -1.665354,-1.55906 c 0,0.38977 0.106299,0.70867 0.248032,0.88583 0.177165,0.2126 0.389763,0.3189 0.602362,0.3189 0.248031,0 0.425197,-0.1063 0.602362,-0.28347 0.141732,-0.21259 0.248032,-0.49606 0.248032,-0.88582 0,-0.4252 -0.1063,-0.70866 -0.248032,-0.92126 -0.177165,-0.2126 -0.389764,-0.28347 -0.637795,-0.28347 -0.212599,0 -0.425197,0.0709 -0.566929,0.28347 -0.177166,0.17716 -0.248032,0.49606 -0.248032,0.88582 z"
         style="fill:#000000;fill-opacity:1;fill-rule:nonzero;stroke:none"
         id="65" />
      <path
         d="m 68.208664,126.70866 -0.496063,0 0,-4.2874 0.531496,0 0,1.52362 c 0.248032,-0.28346 0.531496,-0.4252 0.850394,-0.4252 0.212598,0 0.389764,0.0354 0.566929,0.1063 0.177165,0.1063 0.318898,0.2126 0.425197,0.35433 0.106299,0.14174 0.177165,0.28347 0.248031,0.49607 0.07087,0.17716 0.1063,0.38976 0.1063,0.63779 0,0.5315 -0.141733,0.92126 -0.425197,1.24016 -0.248032,0.28346 -0.566929,0.4252 -0.92126,0.4252 -0.389764,0 -0.673228,-0.14174 -0.885827,-0.46063 z m 0,-1.59449 c 0,0.38977 0.07087,0.67323 0.141732,0.81496 0.177166,0.28347 0.389764,0.4252 0.673229,0.4252 0.248031,0 0.46063,-0.1063 0.602362,-0.3189 0.177165,-0.17716 0.248032,-0.49606 0.248032,-0.88583 0,-0.38976 -0.07087,-0.70866 -0.212599,-0.88582 -0.177165,-0.2126 -0.354331,-0.3189 -0.602362,-0.3189 -0.212599,0 -0.425197,0.1063 -0.602362,0.3189 -0.177166,0.2126 -0.248032,0.49606 -0.248032,0.85039 z"
         style="fill:#000000;fill-opacity:1;fill-rule:nonzero;stroke:none"
         id="66" />
      <path
         d="m 73.098428,126.3189 c -0.177165,0.17716 -0.389764,0.28346 -0.566929,0.35433 -0.177165,0.0709 -0.354331,0.1063 -0.566929,0.1063 -0.354331,0 -0.602362,-0.0709 -0.779528,-0.24804 -0.212598,-0.17716 -0.283464,-0.38976 -0.283464,-0.63779 0,-0.14173 0.03543,-0.28347 0.106299,-0.4252 0.07087,-0.1063 0.141732,-0.2126 0.248031,-0.28346 0.141733,-0.1063 0.248032,-0.14173 0.389764,-0.17717 0.106299,-0.0354 0.248032,-0.0709 0.46063,-0.1063 0.425197,-0.0354 0.744095,-0.1063 0.956693,-0.17716 0,-0.0709 0,-0.1063 0,-0.14173 0,-0.2126 -0.03543,-0.35434 -0.141732,-0.4252 -0.141733,-0.14173 -0.354331,-0.17717 -0.602362,-0.17717 -0.248032,0 -0.425197,0.0354 -0.56693,0.1063 -0.106299,0.1063 -0.212598,0.24803 -0.248031,0.46063 l -0.531496,-0.0709 c 0.07087,-0.2126 0.141732,-0.38977 0.248031,-0.5315 0.106299,-0.14173 0.248032,-0.24803 0.46063,-0.3189 0.212599,-0.0709 0.425197,-0.1063 0.708662,-0.1063 0.248031,0 0.496063,0.0354 0.637795,0.1063 0.177165,0.0709 0.283465,0.14173 0.389764,0.24803 0.07087,0.0709 0.106299,0.2126 0.141732,0.35433 0.03543,0.0709 0.03543,0.24804 0.03543,0.46063 l 0,0.70867 c 0,0.49606 0,0.81496 0.03543,0.92126 0.03543,0.14173 0.07087,0.28346 0.141732,0.38976 l -0.566929,0 c -0.03543,-0.1063 -0.07087,-0.24803 -0.106299,-0.38976 z m -0.03543,-1.1693 c -0.212598,0.0709 -0.496063,0.14174 -0.850394,0.2126 -0.248031,0 -0.389763,0.0354 -0.46063,0.1063 -0.106299,0.0354 -0.177165,0.0709 -0.212598,0.14173 -0.07087,0.1063 -0.07087,0.17717 -0.07087,0.24804 0,0.14173 0.03543,0.28346 0.141732,0.35433 0.106299,0.1063 0.283465,0.14173 0.46063,0.14173 0.212598,0 0.389764,-0.0354 0.566929,-0.1063 0.141732,-0.1063 0.248032,-0.2126 0.318898,-0.38976 0.07087,-0.1063 0.106299,-0.28347 0.106299,-0.5315 z"
         style="fill:#000000;fill-opacity:1;fill-rule:nonzero;stroke:none"
         id="67" />
      <path
         d="m 76.429137,125.5748 0.531496,0.0709 c -0.07087,0.35433 -0.212598,0.63779 -0.425197,0.81496 -0.248031,0.2126 -0.531496,0.3189 -0.885827,0.3189 -0.425197,0 -0.744094,-0.14174 -1.027559,-0.4252 -0.248031,-0.28347 -0.354331,-0.67323 -0.354331,-1.20473 0,-0.31889 0.03543,-0.60236 0.141733,-0.85039 0.106299,-0.28346 0.283464,-0.46063 0.531496,-0.56693 0.212598,-0.14173 0.46063,-0.2126 0.744094,-0.2126 0.318898,0 0.602363,0.1063 0.814961,0.24803 0.212598,0.17717 0.354331,0.4252 0.425197,0.7441 l -0.531496,0.0709 c -0.03543,-0.2126 -0.141732,-0.35434 -0.248032,-0.46063 -0.141732,-0.1063 -0.283464,-0.17717 -0.46063,-0.17717 -0.248031,0 -0.46063,0.1063 -0.637795,0.3189 -0.177165,0.17716 -0.248031,0.46063 -0.248031,0.88582 0,0.4252 0.07087,0.70867 0.248031,0.92126 0.141732,0.17717 0.354331,0.28347 0.602362,0.28347 0.212599,0 0.389764,-0.0709 0.531496,-0.2126 0.141733,-0.1063 0.212599,-0.3189 0.248032,-0.56693 z"
         style="fill:#000000;fill-opacity:1;fill-rule:nonzero;stroke:none"
         id="68" />
      <path
         d="m 77.421263,126.70866 0,-4.2874 0.531496,0 0,2.44488 1.240158,-1.27559 0.673228,0 -1.169291,1.16929 1.311023,1.94882 -0.673228,0 -1.027559,-1.59449 -0.354331,0.35433 0,1.24016 z"
         style="fill:#000000;fill-opacity:1;fill-rule:nonzero;stroke:none"
         id="69" />
      <path
         d="m 83.763783,0.49606299 0,24.80314901 -26.574804,0 0,-24.80314901 26.574804,0 z"
         style="fill:none;stroke:#000000;stroke-width:0.99212605px;stroke-linecap:butt;stroke-linejoin:miter;stroke-miterlimit:4;stroke-opacity:1;stroke-dasharray:none"
         id="70" />
      <path
         d="m 115.65355,48.330708 0,-44.291338 -31.889767,0"
         style="fill:none;stroke:#000000;stroke-width:0.99212605px;stroke-linecap:butt;stroke-linejoin:miter;stroke-miterlimit:4;stroke-opacity:1;stroke-dasharray:none"
         id="71" />
      <path
         d="m 80.220476,110.33858 26.574804,0 0,-14.173227"
         style="fill:none;stroke:#000000;stroke-width:0.99212605px;stroke-linecap:butt;stroke-linejoin:miter;stroke-miterlimit:4;stroke-opacity:1;stroke-dasharray:none"
         id="72" />
      <path
         d="m 106.79528,89.078739 0,-23.031496"
         style="fill:none;stroke:#000000;stroke-width:0.99212605px;stroke-linecap:butt;stroke-linejoin:miter;stroke-miterlimit:4;stroke-opacity:1;stroke-dasharray:none"
         id="73" />
      <path
         d="m 106.79528,44.787401 c 1.94882,0 3.54331,1.594488 3.54331,3.543307 0,1.984252 -1.59449,3.543307 -3.54331,3.543307"
         style="fill:none;stroke:#000000;stroke-width:0.99212605px;stroke-linecap:round;stroke-linejoin:round;stroke-opacity:1;stroke-dasharray:none"
         id="74" />
      <path
         d="m 106.79528,66.047243 0,-14.173228"
         style="fill:none;stroke:#000000;stroke-width:0.99212605px;stroke-linecap:butt;stroke-linejoin:miter;stroke-miterlimit:4;stroke-opacity:1;stroke-dasharray:none"
         id="75" />
      <path
         d="m 106.79528,44.787401 0,-23.031496 -23.031497,0"
         style="fill:none;stroke:#000000;stroke-width:0.99212605px;stroke-linecap:butt;stroke-linejoin:miter;stroke-miterlimit:4;stroke-opacity:1;stroke-dasharray:none"
         id="76" />
      <path
         d="m 112.11024,66.047243 c 0,-1.948819 1.59449,-3.543307 3.54331,-3.543307 1.94882,0 3.54331,1.594488 3.54331,3.543307"
         style="fill:none;stroke:#000000;stroke-width:0.99212605px;stroke-linecap:round;stroke-linejoin:round;stroke-opacity:1;stroke-dasharray:none"
         id="77" />
      <path
         d="m 106.79528,66.047243 5.31496,0"
         style="fill:none;stroke:#000000;stroke-width:0.99212605px;stroke-linecap:butt;stroke-linejoin:miter;stroke-miterlimit:4;stroke-opacity:1;stroke-dasharray:none"
         id="78" />
      <path
         d="m 115.65355,48.330708 8.85827,0"
         style="fill:none;stroke:#000000;stroke-width:0.99212605px;stroke-linecap:butt;stroke-linejoin:miter;stroke-miterlimit:4;stroke-opacity:1;stroke-dasharray:none"
         id="79" />
      <path
         d="m 119.19686,66.047243 5.31496,0"
         style="fill:none;stroke:#000000;stroke-width:0.99212605px;stroke-linecap:butt;stroke-linejoin:miter;stroke-miterlimit:4;stroke-opacity:1;stroke-dasharray:none"
         id="80" />
      <path
         d="m 22.181103,63.070865 0.531496,0.07087 c -0.07087,0.354331 -0.212598,0.637796 -0.46063,0.850394 -0.212598,0.177165 -0.496063,0.283465 -0.850393,0.283465 -0.425197,0 -0.779528,-0.141733 -1.027559,-0.389764 -0.248032,-0.283465 -0.389764,-0.708662 -0.389764,-1.204725 0,-0.35433 0.07087,-0.637795 0.177165,-0.885826 0.106299,-0.248032 0.283465,-0.46063 0.496063,-0.566929 0.248032,-0.141733 0.496063,-0.177166 0.744095,-0.177166 0.35433,0 0.602362,0.07087 0.850393,0.248032 0.212599,0.177165 0.318898,0.389764 0.389764,0.708661 l -0.496063,0.106299 c -0.07087,-0.212598 -0.141732,-0.389763 -0.283464,-0.496063 -0.1063,-0.106299 -0.248032,-0.141732 -0.425197,-0.141732 -0.283465,0 -0.496063,0.07087 -0.673229,0.283465 -0.141732,0.177165 -0.248031,0.496063 -0.248031,0.885826 0,0.425197 0.106299,0.744095 0.248031,0.92126 0.177166,0.177166 0.389764,0.283465 0.637796,0.283465 0.212598,0 0.389763,-0.07087 0.531496,-0.177166 0.106299,-0.141732 0.212598,-0.318897 0.248031,-0.602362 z"
         style="fill:#000000;fill-opacity:1;fill-rule:nonzero;stroke:none"
         id="81" />
      <path
         d="m 23.137796,64.204723 0,-3.082677 0.496063,0 0,0.425197 c 0.07087,-0.141732 0.212599,-0.283464 0.389764,-0.389764 0.141732,-0.07087 0.318898,-0.106299 0.531496,-0.106299 0.248032,0 0.425197,0.03543 0.566929,0.141733 0.141733,0.07087 0.248032,0.212598 0.318898,0.389763 0.248031,-0.35433 0.566929,-0.531496 0.956693,-0.531496 0.318897,0 0.566929,0.07087 0.708661,0.248032 0.177166,0.177165 0.248032,0.425197 0.248032,0.779527 l 0,2.125984 -0.496063,0 0,-1.948818 c 0,-0.212599 -0.03543,-0.354331 -0.07087,-0.46063 -0.03543,-0.07087 -0.1063,-0.177166 -0.177166,-0.212599 -0.106299,-0.07087 -0.212598,-0.106299 -0.318897,-0.106299 -0.212599,0 -0.389764,0.106299 -0.56693,0.248032 -0.141732,0.141732 -0.212598,0.35433 -0.212598,0.673228 l 0,1.807086 -0.531496,0 0,-2.019685 c 0,-0.212598 -0.03543,-0.389763 -0.106299,-0.531496 -0.106299,-0.106299 -0.248032,-0.177165 -0.425197,-0.177165 -0.141732,0 -0.283465,0.07087 -0.425197,0.141732 -0.106299,0.07087 -0.212598,0.177166 -0.248032,0.318898 -0.07087,0.177165 -0.106299,0.389764 -0.106299,0.673228 l 0,1.594488 z"
         style="fill:#000000;fill-opacity:1;fill-rule:nonzero;stroke:none"
         id="82" />
      <path
         d="m 28.275592,64.204723 0,-2.692913 -0.46063,0 0,-0.389764 0.46063,0 0,-0.35433 c 0,-0.212599 0.03543,-0.354331 0.07087,-0.46063 0.03543,-0.141733 0.141732,-0.248032 0.248031,-0.318898 0.141733,-0.106299 0.318898,-0.141732 0.531496,-0.141732 0.177166,0 0.318898,0.03543 0.496063,0.07087 l -0.07087,0.46063 c -0.106299,-0.03543 -0.212598,-0.03543 -0.318897,-0.03543 -0.141733,0 -0.248032,0.03543 -0.318898,0.106299 -0.07087,0.07087 -0.106299,0.177165 -0.106299,0.354331 l 0,0.318897 0.602362,0 0,0.389764 -0.602362,0 0,2.692913 z"
         style="fill:#000000;fill-opacity:1;fill-rule:nonzero;stroke:none"
         id="83" />
      <path
         d="m 30.295277,64.204723 -0.496063,0 0,-4.287401 0.531496,0 0,1.523622 c 0.248031,-0.248031 0.531496,-0.389764 0.850394,-0.389764 0.212598,0 0.389763,0.03543 0.566929,0.106299 0.177165,0.07087 0.318897,0.177166 0.425197,0.318898 0.106299,0.141732 0.177165,0.318898 0.248031,0.496063 0.07087,0.212598 0.106299,0.425197 0.106299,0.637795 0,0.531496 -0.141732,0.956693 -0.425197,1.240158 -0.248031,0.283464 -0.566929,0.425197 -0.921259,0.425197 -0.389764,0 -0.673229,-0.141733 -0.885827,-0.46063 z m 0,-1.559055 c 0,0.354331 0.07087,0.637796 0.141732,0.814961 0.177165,0.248032 0.389764,0.389764 0.673228,0.389764 0.248032,0 0.46063,-0.106299 0.602363,-0.283465 0.177165,-0.212598 0.248031,-0.496063 0.248031,-0.92126 0,-0.389763 -0.07087,-0.708661 -0.212598,-0.885826 -0.177166,-0.177166 -0.389764,-0.283465 -0.602362,-0.283465 -0.212599,0 -0.425197,0.106299 -0.602363,0.283465 -0.177165,0.212598 -0.248031,0.496063 -0.248031,0.885826 z"
         style="fill:#000000;fill-opacity:1;fill-rule:nonzero;stroke:none"
         id="84" />
      <path
         d="m 57.188979,4.03937 -46.062994,0 0,53.149606 15.944882,0"
         style="fill:none;stroke:#000000;stroke-width:0.99212605px;stroke-linecap:butt;stroke-linejoin:miter;stroke-miterlimit:4;stroke-opacity:1;stroke-dasharray:none"
         id="85" />
      <path
         d="m 57.188979,21.755905 -38.97638,0 0,26.574803 8.858268,0"
         style="fill:none;stroke:#000000;stroke-width:0.99212605px;stroke-linecap:butt;stroke-linejoin:miter;stroke-miterlimit:4;stroke-opacity:1;stroke-dasharray:none"
         id="86" />
      <path
         d="m 7.5826775,48.330708 c 0,-1.948819 1.5944882,-3.543307 3.5433075,-3.543307 1.948819,0 3.543307,1.594488 3.543307,3.543307"
         style="fill:none;stroke:#000000;stroke-width:0.99212605px;stroke-linecap:round;stroke-linejoin:round;stroke-opacity:1;stroke-dasharray:none"
         id="87" />
      <path
         d="m 106.79528,89.078739 c 1.94882,0 3.54331,1.594488 3.54331,3.543307 0,1.984252 -1.59449,3.543307 -3.54331,3.543307"
         style="fill:none;stroke:#000000;stroke-width:0.99212605px;stroke-linecap:round;stroke-linejoin:round;stroke-opacity:1;stroke-dasharray:none"
         id="88" />
      <path
         d="m 0.49606301,48.330708 7.08661449,0"
         style="fill:none;stroke:#000000;stroke-width:0.99212605px;stroke-linecap:butt;stroke-linejoin:miter;stroke-miterlimit:4;stroke-opacity:1;stroke-dasharray:none"
         id="89" />
      <path
         d="m 0.49606301,57.188976 10.62992199,0"
         style="fill:none;stroke:#000000;stroke-width:0.99212605px;stroke-linecap:butt;stroke-linejoin:miter;stroke-miterlimit:4;stroke-opacity:1;stroke-dasharray:none"
         id="90" />
      <path
         d="m 14.669292,48.330708 3.543307,0"
         style="fill:none;stroke:#000000;stroke-width:0.99212605px;stroke-linecap:butt;stroke-linejoin:miter;stroke-miterlimit:4;stroke-opacity:1;stroke-dasharray:none"
         id="91" />
      <path
         d="m 66.472444,46.488188 0,-0.389763 c -0.177166,0.318897 -0.46063,0.460629 -0.850394,0.460629 -0.248032,0 -0.496063,-0.07087 -0.673229,-0.177165 -0.212598,-0.141732 -0.389763,-0.354331 -0.496063,-0.602362 -0.106299,-0.248032 -0.177165,-0.496063 -0.177165,-0.814961 0,-0.318897 0.07087,-0.602362 0.141732,-0.850393 0.1063,-0.248032 0.283465,-0.46063 0.496063,-0.602363 0.177166,-0.141732 0.425197,-0.177165 0.673229,-0.177165 0.212598,0 0.354331,0.03543 0.496063,0.106299 0.177165,0.07087 0.283464,0.177166 0.354331,0.318898 l 0,-1.559055 0.531496,0 0,4.287401 z m -1.665355,-1.523622 c 0,0.389764 0.106299,0.673229 0.283465,0.885827 0.141732,0.177165 0.35433,0.283465 0.566929,0.283465 0.248031,0 0.425197,-0.1063 0.602362,-0.283465 0.141732,-0.177165 0.248032,-0.46063 0.248032,-0.850394 0,-0.425196 -0.1063,-0.744094 -0.248032,-0.956693 -0.177165,-0.177165 -0.389764,-0.283464 -0.602362,-0.283464 -0.248032,0 -0.425197,0.106299 -0.602362,0.283464 -0.141733,0.177166 -0.248032,0.496063 -0.248032,0.92126 z"
         style="fill:#000000;fill-opacity:1;fill-rule:nonzero;stroke:none"
         id="92" />
      <path
         d="m 66.472444,63.070865 0.531496,0.07087 c -0.07087,0.354331 -0.212599,0.637796 -0.46063,0.850394 -0.212599,0.177165 -0.496063,0.283465 -0.850394,0.283465 -0.425197,0 -0.779528,-0.141733 -1.027559,-0.389764 -0.248032,-0.283465 -0.389764,-0.708662 -0.389764,-1.204725 0,-0.35433 0.07087,-0.637795 0.177165,-0.885826 0.1063,-0.248032 0.283465,-0.46063 0.496063,-0.566929 0.248032,-0.141733 0.496063,-0.177166 0.744095,-0.177166 0.354331,0 0.602362,0.07087 0.850394,0.248032 0.212598,0.177165 0.318897,0.389764 0.389764,0.708661 l -0.496063,0.106299 c -0.07087,-0.212598 -0.141733,-0.389763 -0.283465,-0.496063 -0.106299,-0.106299 -0.248032,-0.141732 -0.425197,-0.141732 -0.283465,0 -0.496063,0.07087 -0.673228,0.283465 -0.141733,0.177165 -0.248032,0.496063 -0.248032,0.885826 0,0.425197 0.106299,0.744095 0.248032,0.92126 0.177165,0.177166 0.389763,0.283465 0.637795,0.283465 0.212598,0 0.389764,-0.07087 0.531496,-0.177166 0.106299,-0.141732 0.212599,-0.318897 0.248032,-0.602362 z"
         style="fill:#000000;fill-opacity:1;fill-rule:nonzero;stroke:none"
         id="93" />
      <path
         d="m 101.90552,46.488188 0,-0.389763 c -0.17717,0.318897 -0.46063,0.460629 -0.8504,0.460629 -0.24803,0 -0.49606,-0.07087 -0.67323,-0.177165 -0.21259,-0.141732 -0.38976,-0.354331 -0.496059,-0.602362 -0.106299,-0.248032 -0.177166,-0.496063 -0.177166,-0.814961 0,-0.318897 0.07087,-0.602362 0.141733,-0.850393 0.106299,-0.248032 0.283462,-0.46063 0.496062,-0.602363 0.17717,-0.141732 0.4252,-0.177165 0.67323,-0.177165 0.2126,0 0.35433,0.03543 0.49606,0.106299 0.17717,0.07087 0.28347,0.177166 0.35433,0.318898 l 0,-1.559055 0.5315,0 0,4.287401 z m -1.66536,-1.523622 c 0,0.389764 0.1063,0.673229 0.28347,0.885827 0.14173,0.177165 0.35433,0.283465 0.56693,0.283465 0.24803,0 0.42519,-0.1063 0.60236,-0.283465 0.14173,-0.177165 0.24803,-0.46063 0.24803,-0.850394 0,-0.425196 -0.1063,-0.744094 -0.24803,-0.956693 -0.17717,-0.177165 -0.38977,-0.283464 -0.60236,-0.283464 -0.24804,0 -0.4252,0.106299 -0.60237,0.283464 -0.14173,0.177166 -0.24803,0.496063 -0.24803,0.92126 z"
         style="fill:#000000;fill-opacity:1;fill-rule:nonzero;stroke:none"
         id="94" />
      <path
         d="m 101.90552,63.070865 0.53149,0.07087 c -0.0709,0.354331 -0.2126,0.637796 -0.46063,0.850394 -0.2126,0.177165 -0.49606,0.283465 -0.85039,0.283465 -0.4252,0 -0.77953,-0.141733 -1.02756,-0.389764 -0.248032,-0.283465 -0.389765,-0.708662 -0.389765,-1.204725 0,-0.35433 0.07087,-0.637795 0.177166,-0.885826 0.106299,-0.248032 0.283469,-0.46063 0.496059,-0.566929 0.24804,-0.141733 0.49607,-0.177166 0.7441,-0.177166 0.35433,0 0.60236,0.07087 0.85039,0.248032 0.2126,0.177165 0.3189,0.389764 0.38977,0.708661 l -0.49607,0.106299 c -0.0709,-0.212598 -0.14173,-0.389763 -0.28346,-0.496063 -0.1063,-0.106299 -0.24803,-0.141732 -0.4252,-0.141732 -0.28346,0 -0.49606,0.07087 -0.67323,0.283465 -0.14173,0.177165 -0.24803,0.496063 -0.24803,0.885826 0,0.425197 0.1063,0.744095 0.24803,0.92126 0.17717,0.177166 0.38977,0.283465 0.6378,0.283465 0.2126,0 0.38976,-0.07087 0.53149,-0.177166 0.1063,-0.141732 0.2126,-0.318897 0.24804,-0.602362 z"
         style="fill:#000000;fill-opacity:1;fill-rule:nonzero;stroke:none"
         id="95" />
      <path
         d="M 37.700789,50.102361 59.598428,61.795275"
         style="fill:none;stroke:#000000;stroke-width:0.99212605px;stroke-linecap:butt;stroke-linejoin:miter;stroke-miterlimit:4;stroke-opacity:1;stroke-dasharray:0.99212602, 0.99212602;stroke-dashoffset:0"
         id="96" />
      <path
         d="m 56.125986,57.224409 4.641733,5.208661 -6.909449,-0.956693 c 1.594488,-0.779527 2.515748,-2.480315 2.267716,-4.251968 z"
         style="fill:#000000;fill-opacity:1;fill-rule:evenodd;stroke:none"
         id="97" />
      <path
         d="m 81.992129,4.03937 -23.031497,0"
         style="fill:none;stroke:#000000;stroke-width:0.99212605px;stroke-linecap:butt;stroke-linejoin:miter;stroke-miterlimit:4;stroke-opacity:1;stroke-dasharray:none"
         id="98" />
      <path
         d="M 64.204727,6.4842519 57.649609,4.0748031 64.204727,1.6653543 c -1.062992,1.4173228 -1.062992,3.3661417 0,4.8188976 z"
         style="fill:#000000;fill-opacity:1;fill-rule:evenodd;stroke:none"
         id="99" />
      <path
         d="m 81.992129,21.755905 -23.031497,0"
         style="fill:none;stroke:#000000;stroke-width:0.99212605px;stroke-linecap:butt;stroke-linejoin:miter;stroke-miterlimit:4;stroke-opacity:1;stroke-dasharray:none"
         id="100" />
      <path
         d="m 64.204727,24.200787 -6.555118,-2.409449 6.555118,-2.409449 c -1.062992,1.417323 -1.062992,3.366142 0,4.818898 z"
         style="fill:#000000;fill-opacity:1;fill-rule:evenodd;stroke:none"
         id="101" />
      <path
         d="m 85.535436,13.677165 0,-4.3228344 2.905512,0 0,0.531496 -2.338582,0 0,1.3110234 2.019685,0 0,0.496063 -2.019685,0 0,1.984252 z"
         style="fill:#000000;fill-opacity:1;fill-rule:nonzero;stroke:none"
         id="102" />
      <path
         d="m 91.240161,12.649606 0.531496,0.07087 c -0.07087,0.318898 -0.248031,0.566929 -0.46063,0.744095 -0.248031,0.177165 -0.531496,0.283464 -0.885827,0.283464 -0.460629,0 -0.81496,-0.141732 -1.098425,-0.425197 -0.248031,-0.283464 -0.389764,-0.673228 -0.389764,-1.204724 0,-0.496063 0.141733,-0.92126 0.389764,-1.204724 0.283465,-0.283465 0.637796,-0.425197 1.062992,-0.425197 0.425197,0 0.744095,0.141732 1.027559,0.425197 0.248032,0.283464 0.389764,0.673228 0.389764,1.169291 0,0.03543 0,0.106299 0,0.141732 l -2.338582,0 c 0.03543,0.354331 0.141732,0.602362 0.318897,0.814961 0.141732,0.177165 0.389764,0.248031 0.637795,0.248031 0.177166,0 0.354331,-0.03543 0.496063,-0.141732 0.141733,-0.106299 0.248032,-0.248031 0.318898,-0.496063 z m -1.73622,-0.850394 1.73622,0 c 0,-0.248031 -0.07087,-0.460629 -0.177165,-0.566929 -0.177166,-0.212598 -0.389764,-0.318897 -0.673229,-0.318897 -0.248031,0 -0.425196,0.07087 -0.602362,0.248031 -0.177165,0.141732 -0.248031,0.389764 -0.283464,0.637795 z"
         style="fill:#000000;fill-opacity:1;fill-rule:nonzero;stroke:none"
         id="103" />
      <path
         d="m 94.57087,12.649606 0.566929,0.07087 c -0.106299,0.318898 -0.248031,0.566929 -0.496063,0.744095 -0.212598,0.177165 -0.531496,0.283464 -0.885827,0.283464 -0.46063,0 -0.81496,-0.141732 -1.098425,-0.425197 -0.248031,-0.283464 -0.389764,-0.673228 -0.389764,-1.204724 0,-0.496063 0.141733,-0.92126 0.425197,-1.204724 0.248032,-0.283465 0.602362,-0.425197 1.027559,-0.425197 0.425197,0 0.779528,0.141732 1.027559,0.425197 0.248032,0.283464 0.389764,0.673228 0.389764,1.169291 0,0.03543 0,0.106299 0,0.141732 l -2.30315,0 c 0,0.354331 0.1063,0.602362 0.283465,0.814961 0.177165,0.177165 0.389764,0.248031 0.637795,0.248031 0.212599,0 0.354331,-0.03543 0.496063,-0.141732 0.141733,-0.106299 0.248032,-0.248031 0.318898,-0.496063 z m -1.736221,-0.850394 1.736221,0 c 0,-0.248031 -0.07087,-0.460629 -0.177165,-0.566929 -0.177166,-0.212598 -0.389764,-0.318897 -0.673229,-0.318897 -0.212598,0 -0.425197,0.07087 -0.602362,0.248031 -0.177165,0.141732 -0.248032,0.389764 -0.283465,0.637795 z"
         style="fill:#000000;fill-opacity:1;fill-rule:nonzero;stroke:none"
         id="104" />
      <path
         d="m 97.795279,13.677165 0,-0.425197 c -0.177165,0.318898 -0.460629,0.496063 -0.850393,0.496063 -0.248032,0 -0.496063,-0.07087 -0.673229,-0.212598 -0.212598,-0.141732 -0.389763,-0.318898 -0.496063,-0.566929 -0.106299,-0.248032 -0.177165,-0.531496 -0.177165,-0.850394 0,-0.318898 0.07087,-0.602362 0.141732,-0.850394 0.1063,-0.248031 0.283465,-0.46063 0.496063,-0.602362 0.177166,-0.106299 0.425197,-0.177165 0.673229,-0.177165 0.177165,0 0.35433,0.03543 0.496063,0.106299 0.141732,0.07087 0.283464,0.177165 0.35433,0.318898 l 0,-1.5590554 0.531497,0 0,4.3228344 z M 96.129925,12.11811 c 0,0.389764 0.106299,0.673228 0.248032,0.885827 0.177165,0.212598 0.389763,0.283464 0.602362,0.283464 0.248031,0 0.425197,-0.07087 0.602362,-0.283464 0.141732,-0.177166 0.248032,-0.46063 0.248032,-0.850394 0,-0.425197 -0.1063,-0.744094 -0.248032,-0.92126 -0.177165,-0.212598 -0.389764,-0.318897 -0.602362,-0.318897 -0.248032,0 -0.46063,0.106299 -0.602362,0.283464 -0.141733,0.212599 -0.248032,0.496063 -0.248032,0.92126 z"
         style="fill:#000000;fill-opacity:1;fill-rule:nonzero;stroke:none"
         id="105" />
      <path
         d="m 99.602366,13.677165 -0.46063,0 0,-4.3228344 0.496063,0 0,1.5590554 c 0.248032,-0.283465 0.531501,-0.425197 0.885831,-0.425197 0.17716,0 0.35433,0.03543 0.53149,0.106299 0.17717,0.07087 0.3189,0.177165 0.4252,0.318898 0.1063,0.141732 0.17716,0.318897 0.24803,0.496063 0.0709,0.212598 0.1063,0.425197 0.1063,0.637795 0,0.531496 -0.14173,0.956693 -0.38976,1.240157 -0.28347,0.283465 -0.60237,0.46063 -0.9567,0.46063 -0.38976,0 -0.673225,-0.177165 -0.885824,-0.46063 z m 0,-1.594488 c 0,0.389764 0.07087,0.637795 0.177166,0.814961 0.141732,0.248031 0.389768,0.389763 0.673228,0.389763 0.2126,0 0.4252,-0.106299 0.56693,-0.283464 0.17716,-0.212599 0.28346,-0.496063 0.28346,-0.885827 0,-0.425197 -0.1063,-0.708661 -0.24803,-0.92126 -0.17716,-0.177165 -0.35433,-0.283464 -0.60236,-0.283464 -0.2126,0 -0.4252,0.106299 -0.602362,0.283464 -0.141733,0.212599 -0.248032,0.496063 -0.248032,0.885827 z"
         style="fill:#000000;fill-opacity:1;fill-rule:nonzero;stroke:none"
         id="106" />
      <path
         d="m 104.49213,13.287401 c -0.17717,0.141733 -0.38976,0.283465 -0.56693,0.354331 -0.17716,0.07087 -0.35433,0.106299 -0.56693,0.106299 -0.35433,0 -0.60236,-0.106299 -0.77953,-0.283464 -0.21259,-0.141733 -0.28346,-0.354331 -0.28346,-0.637796 0,-0.141732 0.0354,-0.283464 0.1063,-0.389763 0.0709,-0.141733 0.14173,-0.248032 0.28346,-0.318898 0.1063,-0.07087 0.2126,-0.141732 0.35433,-0.177165 0.1063,-0.03543 0.28347,-0.03543 0.46063,-0.07087 0.4252,-0.03543 0.7441,-0.1063 0.9567,-0.177166 0,-0.07087 0,-0.141732 0,-0.141732 0,-0.212598 -0.0354,-0.354331 -0.14174,-0.46063 -0.14173,-0.106299 -0.35433,-0.177165 -0.60236,-0.177165 -0.24803,0 -0.42519,0.03543 -0.56693,0.141732 -0.1063,0.07087 -0.17716,0.248031 -0.24803,0.46063 l -0.53149,-0.07087 c 0.0709,-0.212599 0.14173,-0.389764 0.24803,-0.531496 0.1063,-0.141733 0.24803,-0.248032 0.46063,-0.318898 0.2126,-0.07087 0.46063,-0.106299 0.70866,-0.106299 0.28346,0 0.49606,0.03543 0.63779,0.07087 0.17717,0.07087 0.28347,0.141732 0.38977,0.248031 0.0709,0.1063 0.1063,0.212599 0.14173,0.354331 0.0354,0.106299 0.0354,0.248032 0.0354,0.496063 l 0,0.708662 c 0,0.496063 0,0.779527 0.0354,0.921259 0.0354,0.141733 0.0709,0.248032 0.14173,0.389764 l -0.56693,0 c -0.0354,-0.141732 -0.0709,-0.248031 -0.1063,-0.389764 z m -0.0354,-1.204724 c -0.17717,0.106299 -0.49607,0.177165 -0.8504,0.212598 -0.2126,0.03543 -0.38976,0.07087 -0.46063,0.1063 -0.1063,0.03543 -0.17716,0.106299 -0.2126,0.177165 -0.0709,0.07087 -0.0709,0.141732 -0.0709,0.248031 0,0.141733 0.0354,0.248032 0.14173,0.354331 0.1063,0.106299 0.28347,0.141732 0.46063,0.141732 0.2126,0 0.38976,-0.03543 0.56693,-0.141732 0.14173,-0.07087 0.24803,-0.212598 0.35433,-0.354331 0.0354,-0.141732 0.0709,-0.283464 0.0709,-0.531496 z"
         style="fill:#000000;fill-opacity:1;fill-rule:nonzero;stroke:none"
         id="107" />
      <path
         d="m 107.82284,12.507874 0.5315,0.07087 c -0.0354,0.354331 -0.2126,0.637795 -0.4252,0.850394 -0.24803,0.212598 -0.5315,0.318897 -0.8504,0.318897 -0.42519,0 -0.77952,-0.141732 -1.02755,-0.425197 -0.28347,-0.283464 -0.38977,-0.673228 -0.38977,-1.204724 0,-0.318898 0.0354,-0.637795 0.14173,-0.885827 0.1063,-0.248031 0.28347,-0.425197 0.5315,-0.566929 0.2126,-0.106299 0.46063,-0.177165 0.74409,-0.177165 0.3189,0 0.60237,0.07087 0.81497,0.248031 0.21259,0.177166 0.35433,0.425197 0.42519,0.744095 l -0.53149,0.07087 c -0.0354,-0.212598 -0.14174,-0.389764 -0.24804,-0.496063 -0.14173,-0.106299 -0.28346,-0.141732 -0.46063,-0.141732 -0.24803,0 -0.46063,0.106299 -0.63779,0.283464 -0.17717,0.177166 -0.24803,0.496063 -0.24803,0.92126 0,0.389764 0.0709,0.708661 0.24803,0.885827 0.14173,0.212598 0.35433,0.283464 0.60236,0.283464 0.2126,0 0.38977,-0.03543 0.5315,-0.177165 0.14173,-0.141732 0.2126,-0.318898 0.24803,-0.602362 z"
         style="fill:#000000;fill-opacity:1;fill-rule:nonzero;stroke:none"
         id="108" />
      <path
         d="m 108.81496,13.677165 0,-4.3228344 0.5315,0 0,2.4448814 1.24016,-1.240157 0.67323,0 -1.16929,1.133858 1.31102,1.984252 -0.67323,0 -1.02756,-1.594488 -0.35433,0.354331 0,1.240157 z"
         style="fill:#000000;fill-opacity:1;fill-rule:nonzero;stroke:none"
         id="109" />
      <path
         d="M 37.700789,57.188976 60.732286,50.102361"
         style="fill:none;stroke:#000000;stroke-width:0.99212605px;stroke-linecap:butt;stroke-linejoin:miter;stroke-miterlimit:4;stroke-opacity:1;stroke-dasharray:0.99212602, 0.99212602;stroke-dashoffset:0"
         id="110" />
      <path
         d="m 55.027561,49.322834 6.980315,0.389764 -5.562992,4.216535 c 0.566929,-1.665354 0,-3.507874 -1.417323,-4.606299 z"
         style="fill:#000000;fill-opacity:1;fill-rule:evenodd;stroke:none"
         id="111" />
      <path
         d="M 37.700789,66.047243 60.732286,50.102361"
         style="fill:none;stroke:#000000;stroke-width:0.99212605px;stroke-linecap:butt;stroke-linejoin:miter;stroke-miterlimit:4;stroke-opacity:1;stroke-dasharray:0.99212602, 0.99212602;stroke-dashoffset:0"
         id="112" />
      <path
         d="m 55.062994,51.094487 6.767717,-1.73622 -4.03937,5.704724 c 0.07087,-1.771653 -1.062992,-3.366141 -2.728347,-3.968504 z"
         style="fill:#000000;fill-opacity:1;fill-rule:evenodd;stroke:none"
         id="113" />
      <path
         d="m 25.411871,158.08925 33.537045,0.0155"
         style="fill:none;stroke:#000000;stroke-width:0.99199998;stroke-linecap:butt;stroke-linejoin:miter;stroke-miterlimit:4;stroke-opacity:1;stroke-dasharray:0.992, 0.992;stroke-dashoffset:0;marker-start:none;marker-end:url(#Arrow2Mend)"
         id="31-7"
         sodipodi:nodetypes="cc" />
      <path
         d="m 25.411871,141.6796 33.537045,0.0155"
         style="fill:none;stroke:#000000;stroke-width:0.99199998;stroke-linecap:butt;stroke-linejoin:miter;stroke-miterlimit:4;stroke-opacity:1;stroke-dasharray:none;stroke-dashoffset:0;marker-start:none;marker-end:url(#Arrow2Mend)"
         id="31-7-1"
         sodipodi:nodetypes="cc" />
      <text
         xml:space="preserve"
         style="font-size:10px;font-style:normal;font-variant:normal;font-weight:normal;font-stretch:normal;text-align:start;line-height:125%;writing-mode:lr-tb;text-anchor:start;fill:#000000;fill-opacity:1;stroke:none;font-family:Arial;-inkscape-font-specification:Arial"
         x="65.281105"
         y="145.20367"
         id="text4840"
         sodipodi:linespacing="125%"><tspan
           sodipodi:role="line"
           id="tspan4842"
           x="65.281105"
           y="145.20367">Dominant</tspan></text>
      <text
         xml:space="preserve"
         style="font-size:10px;font-style:normal;font-variant:normal;font-weight:normal;font-stretch:normal;text-align:start;line-height:125%;writing-mode:lr-tb;text-anchor:start;fill:#000000;fill-opacity:1;stroke:none;font-family:Arial;-inkscape-font-specification:Arial"
         x="65.290871"
         y="160.61967"
         id="text4844"
         sodipodi:linespacing="125%"><tspan
           sodipodi:role="line"
           id="tspan4846"
           x="65.290871"
           y="160.61967">Negligible</tspan></text>
    </g>
    <g
       id="g3548"
       transform="translate(290.67984,375.42559)">
      <path
         style="fill:none;stroke:#000000;stroke-width:1;stroke-linecap:butt;stroke-linejoin:miter;stroke-miterlimit:4;stroke-opacity:1;stroke-dasharray:none"
         d="m 132.96435,102.75566 0,8.85827 0,1.77165"
         id="path49989" />
      <path
         style="fill:none;stroke:#000000;stroke-width:1;stroke-linecap:butt;stroke-linejoin:miter;stroke-miterlimit:4;stroke-opacity:1;stroke-dasharray:none"
         d="m 127.64939,108.07062 10.62992,0"
         id="path49991" />
      <path
         sodipodi:type="arc"
         style="fill:#000000;fill-opacity:1;fill-rule:nonzero;stroke:#000000;stroke-width:1;stroke-linecap:round;stroke-linejoin:round;stroke-miterlimit:4;stroke-opacity:1;stroke-dasharray:none"
         id="path49993"
         sodipodi:cx="248.03149"
         sodipodi:cy="295.86612"
         sodipodi:rx="1.7716535"
         sodipodi:ry="1.7716535"
         d="m 249.80315,295.86612 c 0,0.97846 -0.7932,1.77165 -1.77166,1.77165 -0.97845,0 -1.77165,-0.79319 -1.77165,-1.77165 0,-0.97846 0.7932,-1.77165 1.77165,-1.77165 0.97846,0 1.77166,0.79319 1.77166,1.77165 z"
         transform="translate(-115.06715,-187.7955)" />
    </g>
    <g
       id="g3548-1"
       transform="translate(281.82209,393.1851)">
      <path
         style="fill:none;stroke:#000000;stroke-width:1;stroke-linecap:butt;stroke-linejoin:miter;stroke-miterlimit:4;stroke-opacity:1;stroke-dasharray:none"
         d="m 132.96435,102.75566 0,8.85827 0,1.77165"
         id="path49989-7" />
      <path
         style="fill:none;stroke:#000000;stroke-width:1;stroke-linecap:butt;stroke-linejoin:miter;stroke-miterlimit:4;stroke-opacity:1;stroke-dasharray:none"
         d="m 127.64939,108.07062 10.62992,0"
         id="path49991-4" />
      <path
         sodipodi:type="arc"
         style="fill:#000000;fill-opacity:1;fill-rule:nonzero;stroke:#000000;stroke-width:1;stroke-linecap:round;stroke-linejoin:round;stroke-miterlimit:4;stroke-opacity:1;stroke-dasharray:none"
         id="path49993-0"
         sodipodi:cx="248.03149"
         sodipodi:cy="295.86612"
         sodipodi:rx="1.7716535"
         sodipodi:ry="1.7716535"
         d="m 249.80315,295.86612 c 0,0.97846 -0.7932,1.77165 -1.77166,1.77165 -0.97845,0 -1.77165,-0.79319 -1.77165,-1.77165 0,-0.97846 0.7932,-1.77165 1.77165,-1.77165 0.97846,0 1.77166,0.79319 1.77166,1.77165 z"
         transform="translate(-115.06715,-187.7955)" />
    </g>
    <g
       id="g3548-4"
       transform="translate(193.52843,376.58071)">
      <path
         sodipodi:type="arc"
         style="fill:#000000;fill-opacity:1;fill-rule:nonzero;stroke:#000000;stroke-width:1;stroke-linecap:round;stroke-linejoin:round;stroke-miterlimit:4;stroke-opacity:1;stroke-dasharray:none"
         id="path49993-2"
         sodipodi:cx="248.03149"
         sodipodi:cy="295.86612"
         sodipodi:rx="1.7716535"
         sodipodi:ry="1.7716535"
         d="m 249.80315,295.86612 c 0,0.97846 -0.7932,1.77165 -1.77166,1.77165 -0.97845,0 -1.77165,-0.79319 -1.77165,-1.77165 0,-0.97846 0.7932,-1.77165 1.77165,-1.77165 0.97846,0 1.77166,0.79319 1.77166,1.77165 z"
         transform="translate(-115.28812,-188.99506)" />
      <path
         sodipodi:type="arc"
         style="fill:#000000;fill-opacity:1;fill-rule:nonzero;stroke:#000000;stroke-width:1;stroke-linecap:round;stroke-linejoin:round;stroke-miterlimit:4;stroke-opacity:1;stroke-dasharray:none"
         id="path49993-2-4"
         sodipodi:cx="248.03149"
         sodipodi:cy="295.86612"
         sodipodi:rx="1.7716535"
         sodipodi:ry="1.7716535"
         d="m 249.80315,295.86612 c 0,0.97846 -0.7932,1.77165 -1.77166,1.77165 -0.97845,0 -1.77165,-0.79319 -1.77165,-1.77165 0,-0.97846 0.7932,-1.77165 1.77165,-1.77165 0.97846,0 1.77166,0.79319 1.77166,1.77165 z"
         transform="translate(-122.45388,-180.12465)" />
    </g>
  </g>
</svg>
