<?xml version="1.0" encoding="UTF-8" standalone="no"?>
<!-- Created with Inkscape (http://www.inkscape.org/) -->

<svg
   xmlns:ns0="http://www.iki.fi/pav/software/textext/"
   xmlns:dc="http://purl.org/dc/elements/1.1/"
   xmlns:cc="http://creativecommons.org/ns#"
   xmlns:rdf="http://www.w3.org/1999/02/22-rdf-syntax-ns#"
   xmlns:svg="http://www.w3.org/2000/svg"
   xmlns="http://www.w3.org/2000/svg"
   xmlns:sodipodi="http://sodipodi.sourceforge.net/DTD/sodipodi-0.dtd"
   xmlns:inkscape="http://www.inkscape.org/namespaces/inkscape"
   width="107.23435"
   height="156.44098"
   id="svg2"
   version="1.1"
   inkscape:version="0.47 r22583"
   sodipodi:docname="integrator.svg">
  <sodipodi:namedview
     id="base"
     pagecolor="#ffffff"
     bordercolor="#666666"
     borderopacity="1.0"
     inkscape:pageopacity="0.0"
     inkscape:pageshadow="2"
     inkscape:zoom="2.8"
     inkscape:cx="36.100916"
     inkscape:cy="92.928926"
     inkscape:document-units="px"
     inkscape:current-layer="layer1"
     showgrid="true"
     inkscape:window-width="1680"
     inkscape:window-height="988"
     inkscape:window-x="-8"
     inkscape:window-y="-8"
     inkscape:window-maximized="1">
    <inkscape:grid
       snapvisiblegridlinesonly="true"
       enabled="true"
       visible="true"
       empspacing="5"
       id="grid2985"
       type="xygrid" />
  </sodipodi:namedview>
  <defs
     id="defs4">
    <inkscape:perspective
       id="perspective51"
       inkscape:persp3d-origin="120 : 30.708661 : 1"
       inkscape:vp_z="240 : 46.062992 : 1"
       inkscape:vp_y="0 : 1000 : 0"
       inkscape:vp_x="0 : 46.062992 : 1"
       sodipodi:type="inkscape:persp3d" />
    <marker
       style="overflow:visible"
       id="Arrow2Mend"
       refX="0"
       refY="0"
       orient="auto"
       inkscape:stockid="Arrow2Mend">
      <path
         inkscape:connector-curvature="0"
         transform="scale(-0.6,-0.6)"
         d="M 8.7185878,4.0337352 -2.2072895,0.01601326 8.7185884,-4.0017078 c -1.7454984,2.3720609 -1.7354408,5.6174519 -6e-7,8.035443 z"
         style="font-size:12px;fill-rule:evenodd;stroke-width:0.625;stroke-linejoin:round"
         id="path3844" />
    </marker>
    <inkscape:perspective
       id="perspective3345"
       inkscape:persp3d-origin="0.5 : 0.33333333 : 1"
       inkscape:vp_z="1 : 0.5 : 1"
       inkscape:vp_y="0 : 1000 : 0"
       inkscape:vp_x="0 : 0.5 : 1"
       sodipodi:type="inkscape:persp3d" />
    <inkscape:perspective
       id="perspective3367"
       inkscape:persp3d-origin="0.5 : 0.33333333 : 1"
       inkscape:vp_z="1 : 0.5 : 1"
       inkscape:vp_y="0 : 1000 : 0"
       inkscape:vp_x="0 : 0.5 : 1"
       sodipodi:type="inkscape:persp3d" />
    <inkscape:perspective
       id="perspective2903"
       inkscape:persp3d-origin="51.8563 : 20.98819 : 1"
       inkscape:vp_z="103.7126 : 31.482285 : 1"
       inkscape:vp_y="0 : 1000 : 0"
       inkscape:vp_x="0 : 31.482285 : 1"
       sodipodi:type="inkscape:persp3d" />
  </defs>
  <metadata
     id="metadata7">
    <rdf:RDF>
      <cc:Work
         rdf:about="">
        <dc:format>image/svg+xml</dc:format>
        <dc:type
           rdf:resource="http://purl.org/dc/dcmitype/StillImage" />
        <dc:title />
      </cc:Work>
    </rdf:RDF>
  </metadata>
  <g
     transform="translate(-11.45069,-971.83068)"
     id="layer1"
     inkscape:groupmode="layer"
     inkscape:label="Layer 1">
    <g
       id="g2933"
       transform="translate(-0.25983,0.28350419)">
      <g
         id="g4548"
         transform="matrix(1,0,0,-1,-204.07234,1692.6027)">
        <path
           id="path50397-7"
           d="m 277.87547,671.52402 3.54331,0"
           style="fill:none;stroke:#000000;stroke-width:1;stroke-linecap:round;stroke-linejoin:round;stroke-miterlimit:4;stroke-opacity:1;stroke-dasharray:none"
           inkscape:connector-curvature="0" />
        <path
           id="path50399-4"
           d="m 279.64713,673.29568 0,-3.54331"
           style="fill:none;stroke:#000000;stroke-width:1;stroke-linecap:round;stroke-linejoin:round;stroke-miterlimit:4;stroke-opacity:1;stroke-dasharray:none"
           inkscape:connector-curvature="0" />
        <path
           id="path50401-0"
           d="m 277.87548,689.24056 3.54331,0"
           style="fill:none;stroke:#000000;stroke-width:1;stroke-linecap:round;stroke-linejoin:round;stroke-miterlimit:4;stroke-opacity:1;stroke-dasharray:none"
           inkscape:connector-curvature="0" />
        <path
           id="path50403-9"
           d="m 274.28573,701.61187 0,-42.41279 39.19004,21.20639 -39.19004,21.2064"
           style="fill:none;stroke:#000000;stroke-width:1;stroke-linecap:butt;stroke-linejoin:round;stroke-miterlimit:4;stroke-opacity:1;stroke-dasharray:none"
           inkscape:connector-curvature="0" />
        <path
           id="path50405-4"
           d="m 274.33216,689.24056 -8.85825,0"
           style="fill:none;stroke:#000000;stroke-width:1;stroke-linecap:butt;stroke-linejoin:miter;stroke-miterlimit:4;stroke-opacity:1;stroke-dasharray:none"
           inkscape:connector-curvature="0" />
        <path
           id="path50407-8"
           d="m 274.33217,671.52403 -8.85826,0"
           style="fill:none;stroke:#000000;stroke-width:1;stroke-linecap:butt;stroke-linejoin:miter;stroke-miterlimit:4;stroke-opacity:1;stroke-dasharray:none"
           inkscape:connector-curvature="0" />
        <path
           id="path50415-8"
           d="m 313.58267,680.31494 8.85827,0"
           style="fill:none;stroke:#000000;stroke-width:1;stroke-linecap:square;stroke-linejoin:miter;stroke-miterlimit:4;stroke-opacity:1;stroke-dasharray:none"
           inkscape:connector-curvature="0" />
      </g>
      <path
         inkscape:connector-curvature="0"
         style="fill:none;stroke:#000000;stroke-width:1;stroke-linecap:butt;stroke-linejoin:round;stroke-miterlimit:4;stroke-opacity:1;stroke-dasharray:none"
         d="m 20.65354,1003.3622 3.5433,0 1.77165,-3.54333 3.54331,7.08663 3.54331,-7.08663 3.54331,7.08663 3.5433,-7.08663 3.54331,7.08663 1.77165,-3.5433 3.54332,0"
         id="path45546-2"
         sodipodi:nodetypes="cccccccccc" />
      <g
         id="g3554"
         transform="matrix(0,1,1,0,-554.95128,649.51592)">
        <path
           id="path50040-2"
           d="m 327.84623,635.99459 0,7.35826"
           style="fill:none;stroke:#000000;stroke-width:1;stroke-linecap:butt;stroke-linejoin:miter;stroke-miterlimit:4;stroke-opacity:1;stroke-dasharray:none"
           inkscape:connector-curvature="0" />
        <path
           id="path50042-7"
           d="m 327.84623,646.65329 0,7.08661"
           style="fill:none;stroke:#000000;stroke-width:1;stroke-linecap:butt;stroke-linejoin:miter;stroke-miterlimit:4;stroke-opacity:1;stroke-dasharray:none"
           inkscape:connector-curvature="0" />
        <path
           id="path50044-6"
           d="m 333.1612,643.10996 -10.62994,0"
           style="fill:none;stroke:#000000;stroke-width:1;stroke-linecap:round;stroke-linejoin:miter;stroke-miterlimit:4;stroke-opacity:1;stroke-dasharray:none"
           inkscape:connector-curvature="0" />
        <path
           sodipodi:nodetypes="cc"
           id="path3831-1"
           d="m 333.1612,648.42514 c -3.34318,-2.13231 -6.84738,-2.52612 -10.62993,0"
           style="fill:none;stroke:#000000;stroke-width:1;stroke-linecap:round;stroke-linejoin:miter;stroke-miterlimit:4;stroke-opacity:1;stroke-dasharray:none"
           inkscape:connector-curvature="0" />
      </g>
      <path
         inkscape:connector-curvature="0"
         style="fill:none;stroke:#000000;stroke-width:1;stroke-linecap:butt;stroke-linejoin:miter;stroke-miterlimit:4;stroke-opacity:1;stroke-dasharray:none"
         d="m 61.40157,1003.3622 -12.40157,0"
         id="path50407-8-4" />
      <path
         inkscape:connector-curvature="0"
         style="fill:none;stroke:#000000;stroke-width:1;stroke-linecap:butt;stroke-linejoin:miter;stroke-miterlimit:4;stroke-opacity:1;stroke-dasharray:none"
         d="m 12.21052,1003.3622 10.29942,0"
         id="path50407-8-4-2-3-2" />
      <path
         inkscape:connector-curvature="0"
         style="fill:none;stroke:#000000;stroke-width:1;stroke-linecap:butt;stroke-linejoin:miter;stroke-miterlimit:4;stroke-opacity:1;stroke-dasharray:none"
         d="m 61.40157,1003.6275 0,-26.60551"
         id="path50407-8-4-2-2" />
      <path
         inkscape:connector-curvature="0"
         style="fill:none;stroke:#000000;stroke-width:1;stroke-linecap:butt;stroke-linejoin:miter;stroke-miterlimit:4;stroke-opacity:1;stroke-dasharray:none"
         d="m 111.40157,1012.7953 0,-35.43315"
         id="path50407-8-4-2-2-4" />
      <g
         id="g3602-8"
         transform="translate(-36.03937,916.92615)">
        <path
           inkscape:connector-curvature="0"
           id="path46259-6"
           d="m 92.12598,109.8425 10.62992,0"
           style="fill:none;stroke:#000000;stroke-width:1;stroke-linecap:round;stroke-linejoin:miter;stroke-miterlimit:4;stroke-opacity:1;stroke-dasharray:none" />
        <path
           inkscape:connector-curvature="0"
           id="path46261-5"
           d="m 93.89763,111.61437 7.08661,0"
           style="fill:none;stroke:#000000;stroke-width:1;stroke-linecap:round;stroke-linejoin:miter;stroke-miterlimit:4;stroke-opacity:1;stroke-dasharray:none" />
        <path
           inkscape:connector-curvature="0"
           id="path46263-0"
           d="m 95.66928,113.38581 3.54331,0"
           style="fill:none;stroke:#000000;stroke-width:1;stroke-linecap:round;stroke-linejoin:miter;stroke-miterlimit:4;stroke-opacity:1;stroke-dasharray:none" />
        <path
           inkscape:connector-curvature="0"
           id="path46265-9"
           d="m 97.44094,109.4675 0,-5.31496"
           style="fill:none;stroke:#000000;stroke-width:1;stroke-linecap:butt;stroke-linejoin:miter;stroke-miterlimit:4;stroke-opacity:1;stroke-dasharray:none" />
      </g>
      <path
         inkscape:connector-curvature="0"
         style="fill:none;stroke:#000000;stroke-width:0.99661022;stroke-linecap:butt;stroke-linejoin:miter;stroke-miterlimit:4;stroke-opacity:1;stroke-dasharray:none"
         d="m 84.10128,977.36215 -22.69971,0"
         id="path50407-8-4-0" />
      <path
         inkscape:connector-curvature="0"
         style="fill:none;stroke:#000000;stroke-width:1;stroke-linecap:butt;stroke-linejoin:miter;stroke-miterlimit:4;stroke-opacity:1;stroke-dasharray:none"
         d="m 111.40157,977.36215 -13.99612,0"
         id="path50407-8-4-0-1" />
    </g>
    <g
       id="1"
       transform="translate(14.97244,1065.3071)">
      <path
         d="m 58.641734,50.137797 3.543307,0"
         style="fill:none;stroke:#000000;stroke-width:0.99212599px;stroke-linecap:round;stroke-linejoin:round;stroke-opacity:1;stroke-dasharray:none"
         id="2" />
      <path
         d="m 60.413387,48.366143 0,3.543308"
         style="fill:none;stroke:#000000;stroke-width:0.99212599px;stroke-linecap:round;stroke-linejoin:round;stroke-opacity:1;stroke-dasharray:none"
         id="3" />
      <path
         d="m 58.641734,32.421261 3.543307,0"
         style="fill:none;stroke:#000000;stroke-width:0.99212599px;stroke-linecap:round;stroke-linejoin:round;stroke-opacity:1;stroke-dasharray:none"
         id="4" />
      <path
         d="m 55.02756,20.055119 0,42.413387 L 94.251971,41.244096 55.02756,20.055119 z"
         style="fill:none;stroke:#000000;stroke-width:0.99212599px;stroke-linecap:butt;stroke-linejoin:round;stroke-opacity:1;stroke-dasharray:none"
         id="5" />
      <path
         d="m 55.098426,32.421261 -8.858268,0"
         style="fill:none;stroke:#000000;stroke-width:0.99212599px;stroke-linecap:butt;stroke-linejoin:miter;stroke-miterlimit:4;stroke-opacity:1;stroke-dasharray:none"
         id="6" />
      <path
         d="m 55.098426,50.137797 -8.858268,0"
         style="fill:none;stroke:#000000;stroke-width:0.99212599px;stroke-linecap:butt;stroke-linejoin:miter;stroke-miterlimit:4;stroke-opacity:1;stroke-dasharray:none"
         id="7" />
      <path
         d="m 94.35827,41.350395 8.85827,0"
         style="fill:none;stroke:#000000;stroke-width:0.99212599px;stroke-linecap:square;stroke-linejoin:miter;stroke-miterlimit:4;stroke-opacity:1;stroke-dasharray:none"
         id="8" />
      <path
         d="m 65.692915,5.8464569 7.370079,0"
         style="fill:none;stroke:#000000;stroke-width:0.99212599px;stroke-linecap:butt;stroke-linejoin:miter;stroke-miterlimit:4;stroke-opacity:1;stroke-dasharray:none"
         id="9" />
      <path
         d="m 76.358269,5.8464569 7.086615,0"
         style="fill:none;stroke:#000000;stroke-width:0.99212599px;stroke-linecap:butt;stroke-linejoin:miter;stroke-miterlimit:4;stroke-opacity:1;stroke-dasharray:none"
         id="10" />
      <path
         d="m 72.814962,11.161418 0,-10.62992192"
         style="fill:none;stroke:#000000;stroke-width:0.99212599px;stroke-linecap:round;stroke-linejoin:miter;stroke-miterlimit:4;stroke-opacity:1;stroke-dasharray:none"
         id="11" />
      <path
         d="m 78.129923,11.161418 c -2.125984,-3.3307091 -2.551181,-6.8385832 0,-10.62992192"
         style="fill:none;stroke:#000000;stroke-width:0.99212599px;stroke-linecap:round;stroke-linejoin:miter;stroke-miterlimit:4;stroke-opacity:1;stroke-dasharray:none"
         id="12" />
      <path
         d="m 46.240158,32.421261 -14.173228,0"
         style="fill:none;stroke:#000000;stroke-width:1.0629921px;stroke-linecap:butt;stroke-linejoin:miter;stroke-miterlimit:4;stroke-opacity:1;stroke-dasharray:none"
         id="13" />
      <path
         d="m 0.496063,32.421261 10.311024,0"
         style="fill:none;stroke:#000000;stroke-width:0.99212599px;stroke-linecap:butt;stroke-linejoin:miter;stroke-miterlimit:4;stroke-opacity:1;stroke-dasharray:none"
         id="14" />
      <path
         d="m 45.673229,32.775592 0,-26.6102375"
         style="fill:none;stroke:#000000;stroke-width:0.99212599px;stroke-linecap:butt;stroke-linejoin:miter;stroke-miterlimit:4;stroke-opacity:1;stroke-dasharray:none"
         id="15" />
      <path
         d="m 95.27953,41.385828 0,-35.4330719"
         style="fill:none;stroke:#000000;stroke-width:0.99212599px;stroke-linecap:butt;stroke-linejoin:miter;stroke-miterlimit:4;stroke-opacity:1;stroke-dasharray:none"
         id="16" />
      <path
         d="m 40.925198,55.842522 10.629921,0"
         style="fill:none;stroke:#000000;stroke-width:0.99212599px;stroke-linecap:round;stroke-linejoin:miter;stroke-miterlimit:4;stroke-opacity:1;stroke-dasharray:none"
         id="17" />
      <path
         d="m 42.696851,57.614175 7.086615,0"
         style="fill:none;stroke:#000000;stroke-width:0.99212599px;stroke-linecap:round;stroke-linejoin:miter;stroke-miterlimit:4;stroke-opacity:1;stroke-dasharray:none"
         id="18" />
      <path
         d="m 44.468505,59.385829 3.543307,0"
         style="fill:none;stroke:#000000;stroke-width:0.99212599px;stroke-linecap:round;stroke-linejoin:miter;stroke-miterlimit:4;stroke-opacity:1;stroke-dasharray:none"
         id="19" />
      <path
         d="m 46.240158,55.452758 0,-5.314961"
         style="fill:none;stroke:#000000;stroke-width:0.99212599px;stroke-linecap:butt;stroke-linejoin:miter;stroke-miterlimit:4;stroke-opacity:1;stroke-dasharray:none"
         id="20" />
      <path
         d="m 67.641734,5.8464569 -22.677166,0"
         style="fill:none;stroke:#000000;stroke-width:0.99212599px;stroke-linecap:butt;stroke-linejoin:miter;stroke-miterlimit:4;stroke-opacity:1;stroke-dasharray:none"
         id="21" />
      <path
         d="m 95.846459,5.8464569 -13.996063,0"
         style="fill:none;stroke:#000000;stroke-width:0.99212599px;stroke-linecap:butt;stroke-linejoin:miter;stroke-miterlimit:4;stroke-opacity:1;stroke-dasharray:none"
         id="22" />
      <path
         d="m 21.437008,19.877953 0,-3.543307"
         style="fill:none;stroke:#000000;stroke-width:0.99212599px;stroke-linecap:butt;stroke-linejoin:miter;stroke-miterlimit:4;stroke-opacity:1;stroke-dasharray:none"
         id="23" />
      <path
         d="m 26.751969,19.877953 -10.629921,0"
         style="fill:none;stroke:#000000;stroke-width:0.99212599px;stroke-linecap:round;stroke-linejoin:miter;stroke-miterlimit:4;stroke-opacity:1;stroke-dasharray:none"
         id="24" />
      <path
         d="m 32.031497,23.421261 -21.22441,0"
         style="fill:none;stroke:#000000;stroke-width:0.99212599px;stroke-linecap:round;stroke-linejoin:miter;stroke-miterlimit:4;stroke-opacity:1;stroke-dasharray:none"
         id="25" />
      <path
         d="m 32.06693,32.421261 -3.543307,0 0,-8.858268"
         style="fill:none;stroke:#000000;stroke-width:0.99212599px;stroke-linecap:butt;stroke-linejoin:round;stroke-opacity:1;stroke-dasharray:none"
         id="26" />
      <path
         d="m 14.350394,23.562993 0,8.858268 -3.543307,0"
         style="fill:none;stroke:#000000;stroke-width:0.99212599px;stroke-linecap:butt;stroke-linejoin:round;stroke-opacity:1;stroke-dasharray:none"
         id="27" />
    </g>
    <g
       id="g2938"
       ns0:preamble=""
       ns0:text="$\\Downarrow$"
       style="font-style:normal;font-variant:normal;font-weight:normal;font-stretch:normal;letter-spacing:normal;word-spacing:normal;text-anchor:start;fill:none;stroke:#000000;stroke-linecap:butt;stroke-linejoin:miter;stroke-miterlimit:10.43299961;stroke-opacity:1;stroke-dasharray:none;stroke-dashoffset:0"
       xml:space="preserve"
       transform="matrix(2,0,0,-2,-385.28,2472.5622)">
<path
   id="path2940"
   style="stroke-width:0;fill:black;"
   d="M227.64,713.68 L227.64,713.71 L227.64,713.74 L227.64,713.78 L227.63,713.79 L227.63,713.81 L227.63,713.83 L227.63,713.84 L227.63,713.86 L227.63,713.87 L227.62,713.88 L227.62,713.9 L227.62,713.91 L227.61,713.92 L227.61,713.94 L227.6,713.95 L227.6,713.96 L227.59,713.97 L227.58,713.98 L227.57,713.99 L227.56,714 L227.55,714.01 L227.54,714.01 L227.54,714.02 L227.53,714.02 L227.52,714.02 L227.52,714.02 L227.51,714.03 L227.5,714.03 L227.5,714.03 L227.49,714.03 L227.48,714.03 L227.47,714.03 L227.46,714.04 L227.46,714.04 L227.45,714.04 L227.44,714.04 C227.24,714.04,227.24,713.85,227.24,713.68 V707.36 C226.85,706.9,226.58,706.35,226.47,706.11 C226.35,706.38,226.08,706.91,225.7,707.36 V713.68 C225.7,713.86,225.7,714.04,225.51,714.04 C225.3,714.04,225.3,713.86,225.3,713.68 V707.82 C224.92,708.18,224.78,708.27,224.62,708.38 C224.29,708.61,223.91,708.82,223.85,708.82 C223.74,708.82,223.74,708.71,223.74,708.62 C223.74,708.48,223.74,708.46,223.86,708.4 C225.4,707.6,226.05,706.4,226.37,705.28 C226.38,705.22,226.43,705.2,226.47,705.2 C226.55,705.2,226.57,705.27,226.58,705.31 C226.96,706.61,227.7,707.68,229.12,708.42 C229.2,708.46,229.2,708.51,229.2,708.62 C229.2,708.71,229.2,708.82,229.09,708.82 C229.03,708.82,228.63,708.6,228.32,708.39 C228.12,708.24,227.98,708.13,227.64,707.82 Z " />
</g>  </g>
</svg>
